<?xml version="1.0" standalone="no"?>
<!DOCTYPE svg PUBLIC "-//W3C//DTD SVG 1.1//EN" "http://www.w3.org/Graphics/SVG/1.1/DTD/svg11.dtd" >
<!--
2016-10-6: Created.
-->
<svg xmlns="http://www.w3.org/2000/svg">
<metadata>
Created by FontForge 20120731 at Thu Oct  6 12:27:39 2016
 By Apache
Created by Apache with FontForge 2.0 (http://fontforge.sf.net)
</metadata>
<defs>
<font id="Flaticon" horiz-adv-x="512" >
  <font-face 
    font-family="Flaticon"
    font-weight="500"
    font-stretch="normal"
    units-per-em="512"
    panose-1="2 0 6 3 0 0 0 0 0 0"
    ascent="448"
    descent="-64"
    bbox="-0.00341797 -64 512.01 448"
    underline-thickness="25.6"
    underline-position="-51.2"
    unicode-range="U+0020-F108"
  />
    <missing-glyph />
    <glyph glyph-name="space" unicode=" " horiz-adv-x="200" 
 />
    <glyph glyph-name="uniF107" unicode="&#xf107;" 
d="M410.146 205.98c0 6.21094 3.10547 9.31641 9.31641 9.31641c6.21158 0 9.31738 -3.10547 9.31738 -9.31641c0 -6.21159 -3.1058 -9.31738 -9.31738 -9.31738c-6.21094 0 -9.31641 3.10579 -9.31641 9.31738zM74.7324 205.98c0 6.21094 3.10547 9.31641 9.31641 9.31641
c6.21159 0 9.31738 -3.10547 9.31738 -9.31641c0 -6.21159 -3.1058 -9.31738 -9.31738 -9.31738c-6.21094 0 -9.31641 3.10579 -9.31641 9.31738zM102.684 178.029c0 6.21094 3.10547 9.31641 9.31641 9.31641c6.21159 0 9.31738 -3.10547 9.31738 -9.31641
c0 -6.21159 -3.1058 -9.31738 -9.31738 -9.31738c-6.21094 0 -9.31641 3.10579 -9.31641 9.31738zM158.586 178.029c0 6.21094 3.10547 9.31641 9.31641 9.31641c6.21159 0 9.31738 -3.10547 9.31738 -9.31641c0 -6.21159 -3.10579 -9.31738 -9.31738 -9.31738
c-6.21094 0 -9.31641 3.10579 -9.31641 9.31738zM130.635 150.078c0 6.21094 3.10547 9.31641 9.31641 9.31641c6.21159 0 9.31738 -3.10547 9.31738 -9.31641c0 -6.21159 -3.10579 -9.31738 -9.31738 -9.31738c-6.21094 0 -9.31641 3.10579 -9.31641 9.31738z
M186.537 150.078c0 6.21094 3.10547 9.31641 9.31641 9.31641c6.21159 0 9.31738 -3.10547 9.31738 -9.31641c0 -6.21159 -3.10579 -9.31738 -9.31738 -9.31738c-6.21094 0 -9.31641 3.10579 -9.31641 9.31738zM214.488 122.127c0 6.21094 3.10547 9.31641 9.31641 9.31641
c6.21159 0 9.31738 -3.10547 9.31738 -9.31641c0 -6.21159 -3.10579 -9.31738 -9.31738 -9.31738c-6.21094 0 -9.31641 3.1058 -9.31641 9.31738zM270.391 122.127c0 6.21094 3.10547 9.31641 9.31641 9.31641c6.21158 0 9.31738 -3.10547 9.31738 -9.31641
c0 -6.21159 -3.1058 -9.31738 -9.31738 -9.31738c-6.21094 0 -9.31641 3.1058 -9.31641 9.31738zM298.342 150.078c0 6.21094 3.10547 9.31641 9.31641 9.31641c6.21158 0 9.31738 -3.10547 9.31738 -9.31641c0 -6.21159 -3.1058 -9.31738 -9.31738 -9.31738
c-6.21094 0 -9.31641 3.10579 -9.31641 9.31738zM242.439 94.1758c0 6.21094 3.10547 9.31641 9.31641 9.31641c6.21158 0 9.31738 -3.10547 9.31738 -9.31641c0 -6.21159 -3.1058 -9.31738 -9.31738 -9.31738c-6.21094 0 -9.31641 3.1058 -9.31641 9.31738z
M326.293 178.029c0 6.21094 3.10547 9.31641 9.31641 9.31641c6.21158 0 9.31738 -3.10547 9.31738 -9.31641c0 -6.21159 -3.1058 -9.31738 -9.31738 -9.31738c-6.21094 0 -9.31641 3.10579 -9.31641 9.31738zM382.195 178.029c0 6.21094 3.10547 9.31641 9.31641 9.31641
c6.21158 0 9.31738 -3.10547 9.31738 -9.31641c0 -6.21159 -3.1058 -9.31738 -9.31738 -9.31738c-6.21094 0 -9.31641 3.10579 -9.31641 9.31738zM354.244 150.078c0 6.21094 3.10547 9.31641 9.31641 9.31641c6.21158 0 9.31738 -3.10547 9.31738 -9.31641
c0 -6.21159 -3.1058 -9.31738 -9.31738 -9.31738c-6.21094 0 -9.31641 3.10579 -9.31641 9.31738zM424.476 142.438c-0.820526 -0.542847 -1.41071 -0.881058 -1.77051 -1.01465l-0.661133 -0.382812l89.9658 -51.085l-256.005 -146.259l-256.005 146.259l89.9658 51.085
l-89.9658 51.4023l89.9658 51.0859l-89.9658 51.4014l256.005 145.374l255.995 -145.374l-89.9658 -51.4014l89.9658 -51.0859zM256.005 418.884l-218.354 -124l218.363 -124.756l147.191 84.0957v0l71.1543 40.6602zM103.689 229.897l-66.0488 -37.5107l12.6621 -7.23047
c1.79286 1.45964 3.72157 2.18945 5.78613 2.18945c6.21094 0 9.31641 -3.10547 9.31641 -9.31641c0 -0.185745 -0.0411377 -0.428055 -0.123405 -0.726944c-0.0822754 -0.304306 -0.130981 -0.509262 -0.146126 -0.614853l93.6738 -53.5078
c0.643814 5.50911 3.67799 8.26367 9.10254 8.26367c6.21094 0 9.31641 -3.10547 9.31641 -9.31641c0 -2.95071 -1.26399 -5.3856 -3.79199 -7.30469l20.5068 -11.7119c1.18484 0.26107 1.82481 0.391602 1.91992 0.391602c4.43098 0 7.347 -2.16146 8.74805 -6.48438
l51.4023 -29.3672l42.7656 24.4287c-0.285797 1.18975 -0.428711 1.89158 -0.428711 2.10547c0 6.21159 3.1058 9.31738 9.31738 9.31738c2.48672 0 4.642 -0.882164 6.46582 -2.64648l21.084 12.0479c-5.944 0.268684 -8.91602 3.34616 -8.91602 9.23242
c0 6.21159 3.1058 9.31738 9.31738 9.31738c6.21094 0 9.31641 -3.10579 9.31641 -9.31738c0 -1.41629 -0.416016 -2.88211 -1.24805 -4.39746l59.5176 34.0078v0l36.7559 21c-1.23633 1.73666 -1.85449 3.50066 -1.85449 5.29199c0 6.21159 3.1058 9.31738 9.31738 9.31738
c3.97903 0 6.79901 -1.83562 8.45996 -5.50684l18.4756 10.5566l-71.127 40.3896l-2.98145 -1.70508c-1.41202 -4.31055 -4.3251 -6.46582 -8.73926 -6.46582c-0.111664 0 -0.745117 0.127274 -1.90039 0.381836l-20.5166 -11.7207
c2.52213 -1.90475 3.7832 -4.33672 3.7832 -7.2959c0 -6.21094 -3.1058 -9.31641 -9.31738 -9.31641c-5.41437 0 -8.44855 2.74837 -9.10254 8.24512l-93.6553 -53.5078c0.0144653 -0.0876923 0.0631714 -0.285843 0.146118 -0.594482
c0.0829163 -0.30864 0.12439 -0.554489 0.12439 -0.737549c0 -6.21159 -3.1058 -9.31738 -9.31738 -9.31738c-6.21094 0 -9.31641 3.10579 -9.31641 9.31738c0 1.79396 0.614914 3.5547 1.84473 5.28223l-96.2451 54.9893
c0.819656 -1.51202 1.22949 -2.9684 1.22949 -4.36914c0 -6.21159 -3.10579 -9.31738 -9.31738 -9.31738c-6.21094 0 -9.31641 3.10579 -9.31641 9.31738c0 5.87552 2.96257 8.95332 8.8877 9.2334l-21.0752 12.0371c-1.81861 -1.75781 -3.9677 -2.63672 -6.44727 -2.63672
c-3.82642 0 -6.5966 1.76106 -8.31055 5.2832zM474.35 89.9082l-71.1172 40.3896l-147.228 -84.1143l-147.237 84.1143l-71.1172 -40.3896l218.345 -124.755z" />
    <glyph glyph-name="uniF104" unicode="&#xf104;" 
d="M343.829 232.581c-4.91016 0 -9.85547 1.07129 -14.4736 3.27637c-4.07031 1.94434 -5.79492 6.82227 -3.85059 10.8926c1.94434 4.07227 6.82227 5.7959 10.8936 3.85156c6.61328 -3.15723 14.5352 -1.7959 19.7178 3.38477
c3.19238 3.19141 8.36523 3.18945 11.5537 -0.000976562c3.19043 -3.19043 3.18945 -8.36328 -0.000976562 -11.5527c-6.45117 -6.44922 -15.0889 -9.85156 -23.8398 -9.85156zM509.606 349.71c3.19141 -3.19141 3.19141 -8.36328 0.00195312 -11.5566
c0 0 -95.7148 -95.7119 -95.7314 -95.7295l-23.0996 -23.0996c-12.709 -12.708 -29.7305 -19.4131 -46.9766 -19.415c-7.66699 0 -15.376 1.3252 -22.7754 4.03613l-14.8516 -16.7314c-1.61523 -1.81836 -3.85938 -2.74609 -6.11328 -2.74609
c-1.92969 0 -3.86523 0.678711 -5.4209 2.05957c-3.37402 2.99512 -3.68164 8.15918 -0.6875 11.5332l18.7305 21.1035c2.41895 2.72461 6.34473 3.51855 9.63184 1.94824c19.085 -9.11523 41.9531 -5.18652 56.9072 9.76855l17.3311 17.3301
s-21.6377 21.6367 -21.6523 21.6514l-49.0605 49.0596l-17.3301 -17.3291c-14.957 -14.9541 -18.8809 -37.8232 -9.76758 -56.9072c1.56836 -3.28711 0.774414 -7.21387 -1.94922 -9.63184l-22.9883 -20.4053c-1.55566 -1.38086 -3.49121 -2.05957 -5.41992 -2.05957
c-2.25488 0 -4.49902 0.926758 -6.11328 2.74609c-2.99512 3.375 -2.6875 8.53809 0.6875 11.5332l18.6191 16.5264c-8.81152 24.043 -2.98145 51.3926 15.3789 69.752c0 0 23.0996 23.1006 23.1123 23.1143l95.7158 95.7168c3.19043 3.18945 8.36328 3.18945 11.5547 0
c3.19043 -3.19043 3.19043 -8.3623 0 -11.5547l-89.9453 -89.9453l15.8682 -15.8682l89.9463 89.9463c3.19043 3.18945 8.3623 3.18945 11.5537 0c3.19043 -3.19043 3.19043 -8.36328 0 -11.5547l-89.9453 -89.9453l15.8672 -15.8682l89.9463 89.9453
c3.19043 3.19043 8.3623 3.19043 11.5537 0c3.19043 -3.19043 3.19043 -8.3623 0 -11.5537l-89.9453 -89.9463l15.8672 -15.8672l89.9463 89.9443c3.19141 3.19043 8.36328 3.18848 11.5537 0zM227.341 110.706c3.37402 -2.99512 3.68164 -8.1582 0.6875 -11.5332
l-118.046 -132.997c-0.856445 -1.00391 -1.69727 -1.91895 -2.56934 -2.79297c-8.86914 -8.86816 -20.6592 -13.751 -33.2012 -13.751c-12.541 0 -24.3311 4.88281 -33.1992 13.751c-18.3066 18.3066 -18.3066 48.0928 0 66.3994
c0.87207 0.871094 1.78613 1.71387 2.79102 2.56836l135.496 120.263c3.37402 2.99609 8.53711 2.68848 11.5342 -0.6875c2.99414 -3.375 2.68652 -8.53809 -0.6875 -11.5332l-135.56 -120.321c-0.0458984 -0.0400391 -0.0917969 -0.0810547 -0.137695 -0.120117
c-0.692383 -0.585938 -1.30762 -1.15039 -1.88184 -1.72559c-11.9355 -11.9346 -11.9355 -31.3555 0 -43.29c5.78223 -5.78125 13.4678 -8.96582 21.6445 -8.96582c8.17773 0 15.8633 3.18359 21.6455 8.96582c0.575195 0.575195 1.13965 1.18945 1.72559 1.88184
c0.0390625 0.046875 0.0791016 0.0927734 0.120117 0.137695l118.104 133.064c2.99609 3.37402 8.16016 3.68164 11.5342 0.686523zM443.729 32.3496c1.00488 -0.854492 1.91895 -1.69727 2.79004 -2.56836c18.3057 -18.3066 18.3057 -48.0928 0 -66.3994
c-8.86914 -8.86816 -20.6582 -13.751 -33.2002 -13.751c-12.541 0 -24.3311 4.88281 -33.2002 13.751c-0.870117 0.87207 -1.71191 1.78613 -2.56738 2.79199l-209.854 236.433c-13.0332 -6.7373 -27.5361 -10.2705 -42.3447 -10.2705
c-24.6143 0 -47.7549 9.58301 -65.1602 26.9883c-28.5029 28.5039 -48.5557 61.498 -56.4639 92.9053c-8.20801 32.6006 -2.76367 60.5195 15.3301 78.6143c12.4512 12.4502 29.8936 19.0303 50.4424 19.0303c38.1416 0 83.4033 -22.4902 121.076 -60.165
c28.7012 -28.7012 35.1543 -72.0195 16.7236 -107.509zM434.966 -25.0625c11.9355 11.9336 11.9355 31.3555 0.000976562 43.2891c-0.575195 0.575195 -1.18945 1.13965 -1.88086 1.72559c-0.046875 0.0400391 -0.0927734 0.0800781 -0.138672 0.120117l-241.433 214.293
c-2.96777 2.63477 -3.61328 7.02051 -1.53027 10.3984c18.5127 30.0215 14.0059 68.4258 -10.9609 93.3916c-34.6758 34.6777 -75.6191 55.3799 -109.522 55.3799c-16.1221 0 -29.5693 -4.92578 -38.8877 -14.2451c-13.8672 -13.8662 -17.7881 -36.2646 -11.0391 -63.0684
c7.19824 -28.5869 25.7275 -58.8955 52.1738 -85.3408c14.3174 -14.3193 33.3555 -22.2051 53.6055 -22.2051c14.0986 0 27.8564 3.8877 39.7852 11.2441c1.32812 0.819336 2.81348 1.21582 4.28516 1.21582c2.27148 0 4.51465 -0.945312 6.11328 -2.74609l214.293 -241.433
c0.0410156 -0.0458984 0.0810547 -0.0917969 0.120117 -0.138672c0.585938 -0.691406 1.15039 -1.30762 1.72559 -1.88086c5.78125 -5.78125 13.4678 -8.9668 21.6445 -8.9668s15.8633 3.18457 21.6455 8.9668zM155.917 326.604c3.19043 3.18945 8.36426 3.18848 11.5547 0
c19.5869 -19.5889 23.124 -49.7158 8.60449 -73.2627c-1.54395 -2.50293 -4.22168 -3.88281 -6.96191 -3.88281c-1.46289 0 -2.94336 0.392578 -4.28125 1.2168c-3.83984 2.36816 -5.0332 7.40234 -2.66504 11.2422c10.5273 17.0732 7.95801 38.9229 -6.25195 53.1338
c-3.19043 3.18945 -3.19043 8.3623 0.000976562 11.5527zM125.354 241.355c4.5127 0 8.16992 -3.65723 8.16992 -8.16992s-3.65723 -8.16992 -8.16992 -8.16992c-15.8848 0 -30.8193 6.18555 -42.0527 17.417c-24.3906 24.3906 -41.3945 52.0117 -47.8818 77.7773
c-5.29004 21.0049 -2.89355 37.8838 6.74707 47.5244c3.19043 3.19238 8.36133 3.19141 11.5527 0.00195312s3.19141 -8.36328 0.000976562 -11.5537c-5.17871 -5.17969 -6.11914 -17.4346 -2.45605 -31.9824c5.77734 -22.9434 21.2578 -47.8799 43.5908 -70.2139
c8.14551 -8.14551 18.9775 -12.6309 30.499 -12.6309z" />
    <glyph glyph-name="uniF106" unicode="&#xf106;" 
d="M72.9678 341.543c3.22559 0 6.38965 -1.3125 8.65918 -3.59375c2.29297 -2.28125 3.59473 -5.44531 3.59473 -8.6709s-1.30176 -6.38965 -3.59473 -8.6709c-2.28125 -2.28125 -5.43359 -3.59375 -8.65918 -3.59375c-3.2373 0 -6.40234 1.3125 -8.68359 3.59375
c-2.28223 2.28125 -3.59277 5.44531 -3.59277 8.6709s1.31152 6.38965 3.59277 8.6709s5.44629 3.59375 8.68359 3.59375zM72.9551 295.783c3.23828 0 6.39062 -1.31152 8.66992 -3.59277c2.29395 -2.28125 3.59473 -5.44531 3.59473 -8.6709
s-1.30078 -6.39062 -3.59473 -8.67188c-2.2793 -2.28027 -5.43164 -3.59277 -8.66992 -3.59277c-3.22461 0 -6.38965 1.31152 -8.6709 3.59277c-2.28223 2.28125 -3.59277 5.44629 -3.59277 8.67188s1.31152 6.38965 3.59277 8.6709s5.44629 3.59277 8.6709 3.59277z
M72.9551 250.024c3.23828 0 6.39062 -1.31152 8.66992 -3.59277c2.29395 -2.28125 3.59473 -5.44629 3.59473 -8.67188s-1.30078 -6.38965 -3.59473 -8.6709c-2.2793 -2.28125 -5.43164 -3.59277 -8.66992 -3.59277c-3.22461 0 -6.38965 1.31152 -8.6709 3.59277
c-2.28223 2.28125 -3.59277 5.44531 -3.59277 8.6709s1.31152 6.39062 3.59277 8.67188s5.44629 3.59277 8.6709 3.59277zM72.9551 204.266c3.23828 0 6.39062 -1.3125 8.66992 -3.59375c2.29395 -2.28125 3.59473 -5.44531 3.59473 -8.6709
s-1.30078 -6.38965 -3.59473 -8.6709c-2.2793 -2.28125 -5.43164 -3.59375 -8.66992 -3.59375c-3.22461 0 -6.3877 1.3125 -8.6709 3.59375c-2.28223 2.28125 -3.59277 5.44531 -3.59277 8.6709s1.31152 6.38965 3.59277 8.6709s5.44629 3.59375 8.6709 3.59375z
M72.9551 158.507c3.22559 0 6.39062 -1.3125 8.66992 -3.59375c2.29395 -2.28125 3.59473 -5.44531 3.59473 -8.6709s-1.30078 -6.38965 -3.59473 -8.6709c-2.2793 -2.28125 -5.43164 -3.59375 -8.66992 -3.59375c-3.22461 0 -6.3877 1.3125 -8.6709 3.59375
c-2.28223 2.28125 -3.59277 5.43359 -3.59277 8.6709c0 3.22559 1.31152 6.38965 3.59277 8.6709c2.29395 2.28125 5.44629 3.59375 8.6709 3.59375zM72.9551 112.748c3.23828 0 6.39062 -1.3125 8.66992 -3.59375c2.29395 -2.28125 3.59473 -5.44531 3.59473 -8.6709
s-1.30078 -6.38965 -3.59473 -8.6709c-2.2793 -2.28125 -5.44434 -3.59375 -8.66992 -3.59375c-3.22461 0 -6.37695 1.3125 -8.6709 3.59375c-2.28223 2.28125 -3.59277 5.43262 -3.59277 8.6709c0 3.22559 1.31152 6.38965 3.59277 8.6709s5.44629 3.59375 8.6709 3.59375z
M72.9551 66.9893c3.23828 0 6.39062 -1.3125 8.66992 -3.59375c2.29395 -2.28125 3.59473 -5.44531 3.59473 -8.6709s-1.30078 -6.39062 -3.59473 -8.6709c-2.2793 -2.29395 -5.44434 -3.59375 -8.66992 -3.59375c-3.22461 0 -6.37695 1.2998 -8.6709 3.59375
c-2.28223 2.28125 -3.59277 5.43262 -3.59277 8.6709c0 3.22559 1.31152 6.38965 3.59277 8.6709s5.44629 3.59375 8.6709 3.59375zM72.9551 21.2295c3.23828 0 6.39062 -1.31152 8.66992 -3.59277c2.29395 -2.28125 3.59473 -5.44531 3.59473 -8.6709
c0 -3.23828 -1.30078 -6.39062 -3.59473 -8.67188c-2.2793 -2.29297 -5.44434 -3.59277 -8.66992 -3.59277c-3.22461 0 -6.37695 1.2998 -8.6709 3.59277c-2.28223 2.28125 -3.59277 5.43359 -3.59277 8.67188c0 3.22559 1.31152 6.38965 3.59277 8.6709
s5.44629 3.59277 8.6709 3.59277zM118.715 317.014c-3.22559 0 -6.39062 1.3125 -8.66992 3.59375c-2.28223 2.28125 -3.59473 5.44531 -3.59473 8.6709s1.31348 6.38965 3.59473 8.6709c2.2793 2.28125 5.44434 3.59375 8.66992 3.59375
c3.23828 0 6.38965 -1.3125 8.68262 -3.59375c2.28125 -2.28125 3.58203 -5.44531 3.58203 -8.6709s-1.30078 -6.38965 -3.58203 -8.6709c-2.29297 -2.28125 -5.44434 -3.59375 -8.68262 -3.59375zM118.715 295.783c3.23828 0 6.38965 -1.31152 8.6709 -3.59277
c2.29297 -2.28125 3.60449 -5.44531 3.60449 -8.6709s-1.31152 -6.39062 -3.60449 -8.67188c-2.28125 -2.28027 -5.43262 -3.59277 -8.6709 -3.59277c-3.22559 0 -6.39062 1.31152 -8.66992 3.59277c-2.28223 2.28125 -3.59473 5.44629 -3.59473 8.67188
s1.31348 6.38965 3.59473 8.6709c2.2793 2.28125 5.44434 3.59277 8.66992 3.59277zM118.715 250.024c3.23828 0 6.38965 -1.31152 8.6709 -3.59277c2.29297 -2.28125 3.60449 -5.44629 3.60449 -8.67188s-1.31152 -6.38965 -3.60449 -8.6709
c-2.28125 -2.28125 -5.43262 -3.59277 -8.6709 -3.59277c-3.22559 0 -6.39062 1.31152 -8.66992 3.59277c-2.28223 2.28125 -3.59473 5.44531 -3.59473 8.6709s1.31348 6.39062 3.59473 8.67188c2.2793 2.28125 5.44434 3.59277 8.66992 3.59277zM118.715 204.266
c3.23828 0 6.38965 -1.3125 8.6709 -3.59375c2.29297 -2.28125 3.60449 -5.44531 3.60449 -8.6709s-1.31152 -6.38965 -3.60449 -8.6709c-2.28125 -2.28125 -5.43262 -3.59375 -8.6709 -3.59375c-3.22559 0 -6.39062 1.3125 -8.66992 3.59375
c-2.28223 2.28125 -3.59473 5.44531 -3.59473 8.6709s1.31348 6.38965 3.59473 8.6709c2.2793 2.28125 5.44434 3.59375 8.66992 3.59375zM118.715 158.507c3.23828 0 6.38965 -1.3125 8.6709 -3.59375c2.29297 -2.28125 3.60449 -5.44531 3.60449 -8.6709
s-1.31152 -6.38965 -3.60449 -8.6709c-2.28125 -2.28125 -5.43262 -3.59375 -8.6709 -3.59375c-3.22559 0 -6.39062 1.3125 -8.66992 3.59375c-2.28223 2.28125 -3.59473 5.43359 -3.59473 8.6709c0 3.22559 1.31348 6.38965 3.59473 8.6709
c2.2793 2.28125 5.44434 3.59375 8.66992 3.59375zM118.715 112.748c3.23828 0 6.38965 -1.3125 8.6709 -3.59375c2.29297 -2.29297 3.60449 -5.44531 3.60449 -8.6709s-1.31152 -6.38965 -3.60449 -8.6709c-2.28125 -2.28125 -5.43262 -3.59375 -8.6709 -3.59375
c-3.22559 0 -6.39062 1.3125 -8.66992 3.59375c-2.28223 2.28125 -3.59473 5.43262 -3.59473 8.6709c0 3.22559 1.31348 6.38965 3.59473 8.6709c2.2793 2.28125 5.44434 3.59375 8.66992 3.59375zM118.715 66.9893c3.23828 0 6.38965 -1.3125 8.6709 -3.59375
c2.29297 -2.29395 3.60449 -5.44531 3.60449 -8.6709s-1.31152 -6.39062 -3.60449 -8.6709c-2.28125 -2.28125 -5.43262 -3.59375 -8.6709 -3.59375c-3.22559 0 -6.39062 1.3125 -8.66992 3.59375c-2.28223 2.28125 -3.59473 5.43262 -3.59473 8.6709
c0 3.22559 1.31348 6.38965 3.59473 8.6709c2.2793 2.28125 5.44434 3.59375 8.66992 3.59375zM118.715 21.2295c3.23828 0 6.38965 -1.31152 8.6709 -3.59277c2.29297 -2.29395 3.60449 -5.44531 3.60449 -8.6709s-1.31152 -6.39062 -3.60449 -8.67188
c-2.28125 -2.29297 -5.43262 -3.59277 -8.6709 -3.59277c-3.22559 0 -6.39062 1.2998 -8.66992 3.59277c-2.28223 2.28125 -3.59473 5.43359 -3.59473 8.67188c0 3.22559 1.31348 6.38965 3.59473 8.6709c2.2793 2.28125 5.44434 3.59277 8.66992 3.59277zM164.485 317.014
c-3.23633 0 -6.40039 1.3125 -8.6709 3.59375c-2.29297 2.28125 -3.59277 5.44531 -3.59277 8.6709s1.2998 6.38965 3.59277 8.6709c2.28125 2.28125 5.43359 3.59375 8.6709 3.59375c3.22559 0 6.37793 -1.3125 8.67188 -3.59375
c2.2793 -2.28125 3.58105 -5.44531 3.58105 -8.6709s-1.30176 -6.38965 -3.58105 -8.6709c-2.28125 -2.28125 -5.44629 -3.59375 -8.67188 -3.59375zM164.485 295.783c3.22559 0 6.37793 -1.31152 8.67188 -3.59277c2.28027 -2.28125 3.59277 -5.44531 3.59277 -8.6709
s-1.31348 -6.39062 -3.59277 -8.67188c-2.29395 -2.28027 -5.44629 -3.59277 -8.67188 -3.59277c-3.23633 0 -6.38965 1.31152 -8.6709 3.59277c-2.29297 2.28125 -3.59277 5.43359 -3.59277 8.67188c0 3.2373 1.2998 6.38965 3.59277 8.6709
c2.28125 2.28125 5.43359 3.59277 8.6709 3.59277zM164.485 250.024c3.22559 0 6.39062 -1.31152 8.67188 -3.59277c2.28027 -2.28125 3.59277 -5.44629 3.59277 -8.67188s-1.31348 -6.38965 -3.59277 -8.6709c-2.29395 -2.28125 -5.44629 -3.59277 -8.67188 -3.59277
c-3.23633 0 -6.38965 1.31152 -8.6709 3.59277c-2.29297 2.28125 -3.59277 5.44531 -3.59277 8.6709c0 3.23828 1.2998 6.39062 3.59277 8.67188c2.28125 2.28125 5.43359 3.59277 8.6709 3.59277zM164.485 204.266c3.22559 0 6.39062 -1.3125 8.67188 -3.59375
c2.28027 -2.28125 3.59277 -5.44531 3.59277 -8.6709s-1.31348 -6.38965 -3.59277 -8.6709c-2.29395 -2.28125 -5.44629 -3.59375 -8.67188 -3.59375c-3.23633 0 -6.38965 1.3125 -8.6709 3.59375c-2.29297 2.28125 -3.59277 5.44531 -3.59277 8.6709
s1.2998 6.38965 3.59277 8.6709c2.26953 2.28125 5.43359 3.59375 8.6709 3.59375zM164.485 158.507c3.22559 0 6.39062 -1.3125 8.67188 -3.59375c2.28027 -2.28125 3.59277 -5.44531 3.59277 -8.6709s-1.31348 -6.38965 -3.59277 -8.6709
c-2.28125 -2.28125 -5.44629 -3.59375 -8.67188 -3.59375c-3.23633 0 -6.38965 1.3125 -8.6709 3.59375c-2.29297 2.28125 -3.59277 5.43359 -3.59277 8.6709c0 3.22559 1.2998 6.38965 3.59277 8.6709c2.26953 2.28125 5.43359 3.59375 8.6709 3.59375zM164.485 112.748
c3.22559 0 6.39062 -1.3125 8.67188 -3.59375c2.28027 -2.28125 3.59277 -5.44531 3.59277 -8.6709s-1.31348 -6.38965 -3.59277 -8.6709c-2.29395 -2.29395 -5.44629 -3.59375 -8.67188 -3.59375c-3.23633 0 -6.38965 1.2998 -8.6709 3.59375
c-2.29297 2.28125 -3.59277 5.43262 -3.59277 8.6709c0 3.22559 1.2998 6.38965 3.59277 8.6709c2.28125 2.28125 5.43359 3.59375 8.6709 3.59375zM164.485 66.9893c3.22559 0 6.39062 -1.3125 8.67188 -3.59375c2.28027 -2.28125 3.59277 -5.44531 3.59277 -8.6709
c0 -3.23828 -1.31348 -6.39062 -3.59277 -8.6709c-2.28125 -2.29395 -5.44629 -3.59375 -8.67188 -3.59375c-3.23633 0 -6.38965 1.2998 -8.6709 3.59375c-2.29297 2.28125 -3.59277 5.43262 -3.59277 8.6709c0 3.22559 1.2998 6.38965 3.59277 8.6709
c2.28125 2.28125 5.43359 3.59375 8.6709 3.59375zM164.485 21.2295c3.22559 0 6.37793 -1.31152 8.67188 -3.59277c2.28027 -2.28125 3.59277 -5.44531 3.59277 -8.6709c0 -3.23828 -1.31348 -6.39062 -3.59277 -8.67188
c-2.28125 -2.29297 -5.44629 -3.59277 -8.67188 -3.59277c-3.23633 0 -6.38965 1.2998 -8.6709 3.59277c-2.29297 2.26953 -3.59277 5.43359 -3.59277 8.67188c0 3.22559 1.2998 6.38965 3.59277 8.6709c2.28125 2.28125 5.43359 3.59277 8.6709 3.59277zM210.245 341.543
c3.22559 0 6.38965 -1.3125 8.6709 -3.59375c2.28223 -2.28125 3.59277 -5.44531 3.59277 -8.6709s-1.31152 -6.38965 -3.59277 -8.6709s-5.44531 -3.59375 -8.6709 -3.59375s-6.39062 1.3125 -8.66992 3.59375c-2.28223 2.28125 -3.59473 5.44531 -3.59473 8.6709
s1.31348 6.38965 3.59473 8.6709c2.2793 2.28125 5.44434 3.59375 8.66992 3.59375zM210.245 295.783c3.22559 0 6.38965 -1.31152 8.6709 -3.59277c2.28223 -2.28125 3.59277 -5.44531 3.59277 -8.6709s-1.31152 -6.39062 -3.59277 -8.67188
c-2.28125 -2.28027 -5.44531 -3.59277 -8.6709 -3.59277c-3.23828 0 -6.39062 1.31152 -8.68359 3.59277c-2.28027 2.28125 -3.58105 5.44629 -3.58105 8.67188s1.30078 6.38965 3.58105 8.6709c2.29297 2.28125 5.44531 3.59277 8.68359 3.59277zM210.245 250.024
c3.22559 0 6.38965 -1.31152 8.6709 -3.59277c2.28223 -2.28125 3.59277 -5.44629 3.59277 -8.67188s-1.31152 -6.38965 -3.59277 -8.6709c-2.29395 -2.28125 -5.44531 -3.59277 -8.6709 -3.59277s-6.39062 1.31152 -8.68359 3.59277
c-2.28027 2.28125 -3.58105 5.44531 -3.58105 8.6709s1.30078 6.39062 3.58105 8.67188c2.29297 2.28125 5.44531 3.59277 8.68359 3.59277zM210.245 204.266c3.22559 0 6.38965 -1.3125 8.6709 -3.59375c2.28223 -2.28125 3.59277 -5.44531 3.59277 -8.6709
s-1.31152 -6.38965 -3.59277 -8.6709s-5.44531 -3.59375 -8.6709 -3.59375c-3.23828 0 -6.39062 1.3125 -8.68359 3.59375c-2.28027 2.28125 -3.58105 5.44531 -3.58105 8.6709s1.30078 6.38965 3.58105 8.6709c2.29297 2.28125 5.44531 3.59375 8.68359 3.59375z
M210.245 158.507c3.22559 0 6.38965 -1.3125 8.6709 -3.59375c2.28223 -2.28125 3.59277 -5.44531 3.59277 -8.6709s-1.31152 -6.38965 -3.59277 -8.6709s-5.44531 -3.59375 -8.6709 -3.59375c-3.23828 0 -6.39062 1.3125 -8.68359 3.59375
c-2.28027 2.28125 -3.58105 5.44531 -3.58105 8.6709s1.30078 6.38965 3.58105 8.6709c2.29297 2.28125 5.44531 3.59375 8.68359 3.59375zM210.245 112.748c3.22559 0 6.37695 -1.3125 8.6709 -3.59375c2.28223 -2.28125 3.59277 -5.44531 3.59277 -8.6709
c0 -3.23828 -1.31152 -6.38965 -3.59277 -8.6709s-5.44531 -3.59375 -8.6709 -3.59375c-3.23828 0 -6.39062 1.3125 -8.68359 3.59375c-2.28027 2.28125 -3.58105 5.43262 -3.58105 8.6709c0 3.22559 1.30078 6.38965 3.58105 8.6709
c2.29297 2.28125 5.44531 3.59375 8.68359 3.59375zM210.245 66.9893c3.22559 0 6.38867 -1.3125 8.6709 -3.59375s3.59277 -5.44531 3.59277 -8.6709c0 -3.23828 -1.31152 -6.39062 -3.59277 -8.6709c-2.28125 -2.28125 -5.44531 -3.59375 -8.6709 -3.59375
c-3.23828 0 -6.39062 1.3125 -8.68359 3.59375c-2.28027 2.28125 -3.58105 5.43262 -3.58105 8.6709c0 3.22559 1.30078 6.37695 3.58105 8.6709c2.29297 2.28125 5.44531 3.59375 8.68359 3.59375zM210.245 21.2295c3.22559 0 6.38867 -1.31152 8.6709 -3.59277
s3.59277 -5.44531 3.59277 -8.6709c0 -3.23828 -1.31152 -6.39062 -3.59277 -8.68359c-2.29395 -2.28125 -5.44531 -3.58105 -8.6709 -3.58105s-6.39062 1.2998 -8.68359 3.58105c-2.28027 2.29297 -3.58105 5.45801 -3.58105 8.68359s1.30078 6.37695 3.58105 8.6709
c2.29297 2.28125 5.44531 3.59277 8.68359 3.59277zM256.004 341.543c3.22559 0 6.38965 -1.3125 8.66992 -3.59375c2.28223 -2.28125 3.59473 -5.44531 3.59473 -8.6709s-1.31348 -6.38965 -3.59473 -8.6709c-2.28027 -2.28125 -5.44434 -3.59375 -8.66992 -3.59375
s-6.38965 1.3125 -8.68359 3.59375c-2.28125 2.28125 -3.58105 5.44531 -3.58105 8.6709s1.2998 6.38965 3.58105 8.6709c2.29395 2.28125 5.45801 3.59375 8.68359 3.59375zM256.004 295.783c3.22559 0 6.37891 -1.31152 8.66992 -3.59277
c2.28223 -2.28125 3.59473 -5.44531 3.59473 -8.6709s-1.31348 -6.39062 -3.59473 -8.67188c-2.28027 -2.28027 -5.44434 -3.59277 -8.66992 -3.59277c-3.23828 0 -6.38965 1.31152 -8.6709 3.59277c-2.29395 2.28125 -3.59375 5.44629 -3.59375 8.67188
s1.2998 6.38965 3.59375 8.6709c2.28125 2.28125 5.43164 3.59277 8.6709 3.59277zM256.004 250.024c3.22559 0 6.37891 -1.31152 8.66992 -3.59277c2.28223 -2.28125 3.59473 -5.44629 3.59473 -8.67188s-1.31348 -6.38965 -3.59473 -8.6709
c-2.29297 -2.28125 -5.44434 -3.59277 -8.66992 -3.59277c-3.23828 0 -6.38965 1.31152 -8.6709 3.59277c-2.29395 2.28125 -3.59375 5.44531 -3.59375 8.6709s1.2998 6.39062 3.59375 8.67188c2.28125 2.28125 5.43164 3.59277 8.6709 3.59277zM256.004 204.266
c3.22559 0 6.37891 -1.3125 8.66992 -3.59375c2.28223 -2.28125 3.59473 -5.44531 3.59473 -8.6709s-1.31348 -6.38965 -3.59473 -8.6709c-2.29297 -2.28125 -5.44434 -3.59375 -8.66992 -3.59375c-3.23828 0 -6.38965 1.3125 -8.6709 3.59375
c-2.29395 2.28125 -3.59375 5.44531 -3.59375 8.6709s1.2998 6.38965 3.59375 8.6709c2.28125 2.28125 5.43164 3.59375 8.6709 3.59375zM256.004 158.507c3.22559 0 6.37891 -1.3125 8.66992 -3.59375c2.28223 -2.28125 3.59473 -5.44531 3.59473 -8.6709
c0 -3.23828 -1.31348 -6.38965 -3.59473 -8.6709c-2.29297 -2.28125 -5.44434 -3.59375 -8.66992 -3.59375c-3.23828 0 -6.38965 1.3125 -8.6709 3.59375c-2.29395 2.28125 -3.59375 5.44531 -3.59375 8.6709s1.2998 6.38965 3.59375 8.6709
c2.28125 2.28125 5.43164 3.59375 8.6709 3.59375zM256.004 112.748c3.22559 0 6.38965 -1.3125 8.66992 -3.59375c2.28223 -2.28125 3.59473 -5.44531 3.59473 -8.6709c0 -3.23828 -1.31348 -6.38965 -3.59473 -8.6709
c-2.28027 -2.28125 -5.44434 -3.59375 -8.66992 -3.59375c-3.23828 0 -6.38965 1.3125 -8.6709 3.59375c-2.29395 2.28125 -3.59375 5.44531 -3.59375 8.6709s1.2998 6.38965 3.59375 8.6709c2.28125 2.28125 5.43164 3.59375 8.6709 3.59375zM256.004 66.9893
c3.22559 0 6.38965 -1.3125 8.66992 -3.59375c2.28223 -2.28125 3.59473 -5.44531 3.59473 -8.6709c0 -3.23828 -1.31348 -6.39062 -3.59473 -8.6709c-2.28027 -2.28125 -5.44434 -3.59375 -8.66992 -3.59375c-3.23828 0 -6.40137 1.3125 -8.6709 3.59375
c-2.29395 2.28125 -3.59375 5.44531 -3.59375 8.6709s1.2998 6.38965 3.59375 8.6709c2.26855 2.28125 5.43164 3.59375 8.6709 3.59375zM256.004 21.2295c3.22559 0 6.37891 -1.31152 8.66992 -3.59277c2.28223 -2.28125 3.59473 -5.44531 3.59473 -8.6709
s-1.31348 -6.39062 -3.59473 -8.68359c-2.29297 -2.28125 -5.44434 -3.58105 -8.66992 -3.58105c-3.23828 0 -6.38965 1.2998 -8.6709 3.58105c-2.29395 2.29297 -3.59375 5.45801 -3.59375 8.68359s1.2998 6.38965 3.59375 8.6709
c2.28125 2.28125 5.43164 3.59277 8.6709 3.59277zM301.763 341.543c3.22559 0 6.38965 -1.3125 8.6709 -3.59375c2.28223 -2.28125 3.59375 -5.44531 3.59375 -8.6709s-1.3125 -6.38965 -3.59375 -8.6709s-5.44531 -3.59375 -8.6709 -3.59375
c-3.23633 0 -6.38965 1.3125 -8.66992 3.59375c-2.29297 2.28125 -3.59473 5.44531 -3.59473 8.6709s1.30176 6.38965 3.59473 8.6709c2.28027 2.28125 5.43164 3.59375 8.66992 3.59375zM301.763 295.783c3.22559 0 6.38965 -1.31152 8.6709 -3.59277
c2.28223 -2.28125 3.59375 -5.44531 3.59375 -8.6709s-1.3125 -6.39062 -3.59375 -8.67188c-2.29297 -2.28027 -5.44531 -3.59277 -8.6709 -3.59277s-6.38965 1.31152 -8.66992 3.59277c-2.29297 2.28125 -3.59473 5.44629 -3.59473 8.67188s1.30176 6.38965 3.59473 8.6709
c2.28027 2.28125 5.43164 3.59277 8.66992 3.59277zM301.763 250.024c3.22559 0 6.37793 -1.31152 8.6709 -3.59277c2.28223 -2.28125 3.59375 -5.44629 3.59375 -8.67188s-1.3125 -6.38965 -3.59375 -8.6709s-5.44531 -3.59277 -8.6709 -3.59277
c-3.23633 0 -6.38965 1.31152 -8.66992 3.59277c-2.29297 2.28125 -3.59473 5.44531 -3.59473 8.6709s1.30176 6.39062 3.59473 8.67188c2.28027 2.28125 5.44434 3.59277 8.66992 3.59277zM301.763 204.266c3.22559 0 6.38965 -1.3125 8.6709 -3.59375
c2.28223 -2.28125 3.59375 -5.44531 3.59375 -8.6709s-1.3125 -6.38965 -3.59375 -8.6709s-5.44531 -3.59375 -8.6709 -3.59375c-3.23633 0 -6.38965 1.3125 -8.66992 3.59375c-2.29297 2.28125 -3.59473 5.44531 -3.59473 8.6709s1.30176 6.38965 3.59473 8.6709
c2.28027 2.28125 5.43164 3.59375 8.66992 3.59375zM301.763 158.507c3.22559 0 6.38965 -1.3125 8.6709 -3.59375c2.28223 -2.28125 3.59375 -5.44531 3.59375 -8.6709s-1.3125 -6.38965 -3.59375 -8.6709c-2.29297 -2.28125 -5.44531 -3.59375 -8.6709 -3.59375
s-6.38965 1.3125 -8.66992 3.59375c-2.29297 2.28125 -3.59473 5.44531 -3.59473 8.6709s1.30176 6.38965 3.59473 8.6709c2.28027 2.28125 5.43164 3.59375 8.66992 3.59375zM301.763 112.748c3.22559 0 6.38965 -1.3125 8.6709 -3.59375
c2.28223 -2.28125 3.59375 -5.44531 3.59375 -8.6709s-1.3125 -6.38965 -3.59375 -8.6709s-5.44531 -3.59375 -8.6709 -3.59375s-6.38965 1.3125 -8.66992 3.59375c-2.29297 2.28125 -3.59473 5.44531 -3.59473 8.6709s1.30176 6.38965 3.59473 8.6709
c2.28027 2.28125 5.43164 3.59375 8.66992 3.59375zM301.763 66.9893c3.22559 0 6.37793 -1.3125 8.6709 -3.59375c2.28223 -2.28125 3.59375 -5.44531 3.59375 -8.6709c0 -3.23828 -1.3125 -6.39062 -3.59375 -8.6709
c-2.28125 -2.28125 -5.44531 -3.59375 -8.6709 -3.59375c-3.23633 0 -6.38965 1.3125 -8.66992 3.59375c-2.29297 2.28125 -3.59473 5.43262 -3.59473 8.6709c0 3.22559 1.30176 6.38965 3.59473 8.6709c2.28027 2.28125 5.44434 3.59375 8.66992 3.59375zM301.763 21.2295
c3.22559 0 6.38867 -1.31152 8.6709 -3.59277s3.59375 -5.44531 3.59375 -8.6709s-1.3125 -6.39062 -3.59375 -8.67188c-2.28125 -2.29297 -5.44531 -3.59277 -8.6709 -3.59277c-3.23633 0 -6.38965 1.2998 -8.66992 3.59277
c-2.29297 2.28125 -3.59473 5.44629 -3.59473 8.67188s1.30176 6.38965 3.59473 8.6709c2.28027 2.28125 5.43164 3.59277 8.66992 3.59277zM347.521 341.543c3.22559 0 6.38965 -1.3125 8.66992 -3.59375c2.28223 -2.28125 3.59473 -5.44531 3.59473 -8.6709
s-1.31348 -6.38965 -3.59473 -8.6709c-2.28027 -2.28125 -5.44434 -3.59375 -8.66992 -3.59375s-6.38965 1.3125 -8.6709 3.59375c-2.28223 2.28125 -3.59375 5.44531 -3.59375 8.6709s1.3125 6.38965 3.59375 8.6709s5.44531 3.59375 8.6709 3.59375zM347.521 295.783
c3.22559 0 6.38965 -1.31152 8.66992 -3.59277c2.28223 -2.28125 3.59473 -5.44531 3.59473 -8.6709s-1.31348 -6.39062 -3.59473 -8.67188c-2.28027 -2.28027 -5.44434 -3.59277 -8.66992 -3.59277s-6.38965 1.31152 -8.6709 3.59277
c-2.28223 2.28125 -3.59375 5.44629 -3.59375 8.67188s1.3125 6.38965 3.59375 8.6709s5.44531 3.59277 8.6709 3.59277zM347.521 250.024c3.22559 0 6.38965 -1.31152 8.66992 -3.59277c2.28223 -2.28125 3.59473 -5.44629 3.59473 -8.67188
s-1.31348 -6.38965 -3.59473 -8.6709c-2.28027 -2.28125 -5.44434 -3.59277 -8.66992 -3.59277s-6.38965 1.31152 -8.6709 3.59277c-2.28223 2.28125 -3.59375 5.44531 -3.59375 8.6709s1.3125 6.39062 3.59375 8.67188s5.43164 3.59277 8.6709 3.59277zM347.521 204.266
c3.22559 0 6.38965 -1.3125 8.66992 -3.59375c2.28223 -2.28125 3.59473 -5.44531 3.59473 -8.6709c0 -3.2373 -1.31348 -6.38965 -3.59473 -8.6709c-2.28027 -2.28125 -5.44434 -3.59375 -8.66992 -3.59375s-6.38867 1.3125 -8.6709 3.59375
s-3.59375 5.44531 -3.59375 8.6709s1.3125 6.38965 3.59375 8.6709s5.43164 3.59375 8.6709 3.59375zM347.521 158.507c3.22559 0 6.38965 -1.3125 8.66992 -3.59375c2.28223 -2.28125 3.59473 -5.44531 3.59473 -8.6709c0 -3.23828 -1.31348 -6.38965 -3.59473 -8.6709
c-2.28027 -2.28125 -5.44434 -3.59375 -8.66992 -3.59375s-6.38867 1.3125 -8.6709 3.59375s-3.59375 5.44531 -3.59375 8.6709s1.3125 6.38965 3.59375 8.6709s5.43164 3.59375 8.6709 3.59375zM347.521 112.748c3.22559 0 6.38965 -1.3125 8.66992 -3.59375
c2.28223 -2.28125 3.59473 -5.44531 3.59473 -8.6709c0 -3.23828 -1.31348 -6.38965 -3.59473 -8.6709c-2.28027 -2.28125 -5.44434 -3.59375 -8.66992 -3.59375s-6.38867 1.3125 -8.6709 3.59375s-3.59375 5.44531 -3.59375 8.6709s1.3125 6.38965 3.59375 8.6709
s5.44531 3.59375 8.6709 3.59375zM347.521 66.9893c3.22559 0 6.38965 -1.3125 8.66992 -3.59375c2.28223 -2.28125 3.59473 -5.44531 3.59473 -8.6709c0 -3.23828 -1.31348 -6.39062 -3.59473 -8.6709c-2.28027 -2.28125 -5.44434 -3.59375 -8.66992 -3.59375
s-6.38867 1.3125 -8.6709 3.59375s-3.59375 5.43262 -3.59375 8.6709c0 3.22559 1.3125 6.38965 3.59375 8.6709s5.43164 3.59375 8.6709 3.59375zM347.521 21.2295c3.22559 0 6.38965 -1.31152 8.66992 -3.59277c2.28223 -2.28125 3.59473 -5.44531 3.59473 -8.6709
c0 -3.23828 -1.31348 -6.39062 -3.59473 -8.67188c-2.28027 -2.29297 -5.44434 -3.59277 -8.66992 -3.59277s-6.38965 1.2998 -8.6709 3.59277c-2.28223 2.28125 -3.59375 5.43359 -3.59375 8.67188c0 3.22559 1.3125 6.38965 3.59375 8.6709
s5.43164 3.59277 8.6709 3.59277zM393.28 341.543c3.22559 0 6.39062 -1.3125 8.6709 -3.59375c2.28125 -2.28125 3.59375 -5.43359 3.59375 -8.6709c0 -3.22559 -1.31348 -6.38965 -3.59375 -8.6709c-2.28125 -2.28125 -5.44531 -3.59375 -8.6709 -3.59375
s-6.38965 1.3125 -8.6709 3.59375s-3.59375 5.44531 -3.59375 8.6709s1.31348 6.38965 3.59375 8.6709c2.28125 2.28125 5.44531 3.59375 8.6709 3.59375zM393.28 295.783c3.22559 0 6.39062 -1.31152 8.6709 -3.59277c2.28125 -2.28125 3.59375 -5.44531 3.59375 -8.6709
s-1.31348 -6.39062 -3.59375 -8.67188c-2.28125 -2.28027 -5.44531 -3.59277 -8.6709 -3.59277s-6.38965 1.31152 -8.6709 3.59277s-3.59375 5.44629 -3.59375 8.67188s1.31348 6.38965 3.59375 8.6709c2.28125 2.28125 5.44531 3.59277 8.6709 3.59277zM393.28 250.024
c3.22559 0 6.39062 -1.31152 8.6709 -3.59277c2.28125 -2.28125 3.59375 -5.44629 3.59375 -8.67188s-1.31348 -6.38965 -3.59375 -8.6709c-2.28125 -2.28125 -5.44531 -3.59277 -8.6709 -3.59277s-6.38965 1.31152 -8.6709 3.59277s-3.59375 5.44531 -3.59375 8.6709
s1.31348 6.39062 3.59375 8.67188c2.28125 2.28125 5.44531 3.59277 8.6709 3.59277zM393.28 204.266c3.22559 0 6.39062 -1.3125 8.6709 -3.59375c2.28125 -2.28125 3.59375 -5.44531 3.59375 -8.6709s-1.31348 -6.38965 -3.59375 -8.6709
c-2.28125 -2.28125 -5.44531 -3.59375 -8.6709 -3.59375s-6.38965 1.3125 -8.6709 3.59375s-3.59375 5.44531 -3.59375 8.6709s1.31348 6.38965 3.59375 8.6709c2.28125 2.28125 5.44531 3.59375 8.6709 3.59375zM393.28 158.507c3.22559 0 6.39062 -1.3125 8.6709 -3.59375
c2.28125 -2.28125 3.59375 -5.44531 3.59375 -8.6709s-1.31348 -6.38965 -3.59375 -8.6709c-2.28125 -2.28125 -5.44531 -3.59375 -8.6709 -3.59375s-6.38965 1.3125 -8.6709 3.59375s-3.59375 5.44531 -3.59375 8.6709s1.31348 6.38965 3.59375 8.6709
c2.28125 2.28125 5.44531 3.59375 8.6709 3.59375zM393.28 112.748c3.22559 0 6.39062 -1.3125 8.6709 -3.59375c2.28125 -2.28125 3.59375 -5.44531 3.59375 -8.6709s-1.31348 -6.38965 -3.59375 -8.6709c-2.28125 -2.29395 -5.44531 -3.59375 -8.6709 -3.59375
s-6.38965 1.2998 -8.6709 3.59375c-2.28125 2.28125 -3.59375 5.43262 -3.59375 8.6709c0 3.22559 1.31348 6.38965 3.59375 8.6709c2.28125 2.28125 5.44531 3.59375 8.6709 3.59375zM393.28 66.9893c3.22559 0 6.39062 -1.3125 8.6709 -3.59375
c2.28125 -2.28125 3.59375 -5.44531 3.59375 -8.6709c0 -3.23828 -1.31348 -6.39062 -3.59375 -8.6709c-2.28125 -2.29395 -5.44531 -3.59375 -8.6709 -3.59375s-6.38965 1.2998 -8.6709 3.59375c-2.28125 2.28125 -3.59375 5.43262 -3.59375 8.6709
c0 3.22559 1.31348 6.38965 3.59375 8.6709c2.28125 2.28125 5.44531 3.59375 8.6709 3.59375zM393.28 21.2295c3.22559 0 6.39062 -1.31152 8.6709 -3.59277c2.28125 -2.28125 3.59375 -5.44531 3.59375 -8.6709c0 -3.23828 -1.31348 -6.39062 -3.59375 -8.67188
c-2.28125 -2.29297 -5.44531 -3.59277 -8.6709 -3.59277s-6.38965 1.2998 -8.6709 3.59277c-2.28125 2.28125 -3.59375 5.43359 -3.59375 8.67188c0 3.22559 1.31348 6.38965 3.59375 8.6709c2.28125 2.28125 5.44531 3.59277 8.6709 3.59277zM439.041 341.543
c3.22363 0 6.38965 -1.3125 8.66992 -3.59375c2.28223 -2.28125 3.59473 -5.44531 3.59473 -8.6709s-1.31348 -6.38965 -3.59473 -8.6709c-2.28027 -2.28125 -5.44434 -3.59375 -8.66992 -3.59375c-3.22656 0 -6.38965 1.3125 -8.6709 3.59375
c-2.2832 2.28125 -3.59375 5.44531 -3.59375 8.6709s1.3125 6.38965 3.59375 8.6709s5.44434 3.59375 8.6709 3.59375zM439.041 295.783c3.22363 0 6.38965 -1.31152 8.66992 -3.59277c2.28223 -2.28125 3.59473 -5.44531 3.59473 -8.6709
s-1.31348 -6.39062 -3.59473 -8.67188c-2.28027 -2.28027 -5.44434 -3.59277 -8.66992 -3.59277c-3.22656 0 -6.38965 1.31152 -8.6709 3.59277c-2.2832 2.28125 -3.59375 5.44629 -3.59375 8.67188s1.3125 6.38965 3.59375 8.6709s5.44434 3.59277 8.6709 3.59277z
M439.041 250.024c3.22363 0 6.38965 -1.31152 8.66992 -3.59277c2.28223 -2.28125 3.59473 -5.44629 3.59473 -8.67188s-1.31348 -6.38965 -3.59473 -8.6709c-2.28027 -2.28125 -5.44434 -3.59277 -8.66992 -3.59277c-3.22656 0 -6.38965 1.31152 -8.6709 3.59277
c-2.2832 2.28125 -3.59375 5.44531 -3.59375 8.6709s1.3125 6.39062 3.59375 8.67188s5.44434 3.59277 8.6709 3.59277zM439.041 204.266c3.22363 0 6.38965 -1.3125 8.66992 -3.59375c2.28223 -2.28125 3.59473 -5.44531 3.59473 -8.6709
s-1.31348 -6.38965 -3.59473 -8.6709c-2.28027 -2.28125 -5.44434 -3.59375 -8.66992 -3.59375c-3.22656 0 -6.38867 1.3125 -8.6709 3.59375c-2.2832 2.28125 -3.59375 5.44531 -3.59375 8.6709s1.3125 6.38965 3.59375 8.6709s5.44434 3.59375 8.6709 3.59375z
M439.041 158.507c3.22363 0 6.38965 -1.3125 8.66992 -3.59375c2.28223 -2.28125 3.59473 -5.44531 3.59473 -8.6709s-1.31348 -6.38965 -3.59473 -8.6709c-2.28027 -2.28125 -5.44434 -3.59375 -8.66992 -3.59375c-3.22656 0 -6.38867 1.3125 -8.6709 3.59375
c-2.2832 2.28125 -3.59375 5.43359 -3.59375 8.6709c0 3.22559 1.3125 6.38965 3.59375 8.6709s5.44434 3.59375 8.6709 3.59375zM439.041 112.748c3.22363 0 6.38965 -1.3125 8.66992 -3.59375c2.28223 -2.28125 3.59473 -5.44531 3.59473 -8.6709
s-1.31348 -6.38965 -3.59473 -8.6709c-2.28027 -2.28125 -5.44434 -3.59375 -8.66992 -3.59375c-3.22656 0 -6.38867 1.3125 -8.6709 3.59375c-2.2832 2.28125 -3.59375 5.43262 -3.59375 8.6709c0 3.22559 1.3125 6.38965 3.59375 8.6709s5.44434 3.59375 8.6709 3.59375z
M439.041 66.9893c3.22363 0 6.38965 -1.3125 8.66992 -3.59375c2.28223 -2.28125 3.59473 -5.44531 3.59473 -8.6709s-1.31348 -6.39062 -3.59473 -8.6709c-2.28027 -2.29395 -5.44434 -3.59375 -8.66992 -3.59375c-3.22656 0 -6.38965 1.2998 -8.6709 3.59375
c-2.2832 2.28125 -3.59375 5.43262 -3.59375 8.6709c0 3.22559 1.3125 6.38965 3.59375 8.6709s5.44434 3.59375 8.6709 3.59375zM439.041 21.2295c3.22363 0 6.38965 -1.31152 8.66992 -3.59277c2.28223 -2.28125 3.59473 -5.44531 3.59473 -8.6709
s-1.31348 -6.39062 -3.59473 -8.68359c-2.28027 -2.28125 -5.44434 -3.58105 -8.66992 -3.58105c-3.22656 0 -6.38965 1.2998 -8.6709 3.58105c-2.2832 2.29297 -3.59375 5.44531 -3.59375 8.68359c0 3.22559 1.3125 6.38965 3.59375 8.6709s5.44434 3.59277 8.6709 3.59277
zM72.9551 387.302c3.23828 0 6.39062 -1.3125 8.66992 -3.59375c2.29395 -2.28125 3.59473 -5.44531 3.59473 -8.6709s-1.30078 -6.38965 -3.59473 -8.6709c-2.2793 -2.28125 -5.43164 -3.59375 -8.66992 -3.59375c-3.22461 0 -6.38965 1.3125 -8.6709 3.59375
c-2.28223 2.28125 -3.59277 5.44531 -3.59277 8.6709c0 3.23828 1.31152 6.38965 3.59277 8.6709s5.44629 3.59375 8.6709 3.59375zM118.715 387.302c3.23828 0 6.38965 -1.3125 8.6709 -3.59375c2.29297 -2.28125 3.60449 -5.44531 3.60449 -8.6709
s-1.31152 -6.38965 -3.60449 -8.6709c-2.28125 -2.28125 -5.43262 -3.59375 -8.6709 -3.59375c-3.22559 0 -6.39062 1.3125 -8.66992 3.59375c-2.28223 2.28125 -3.59473 5.44531 -3.59473 8.6709s1.31348 6.38965 3.59473 8.6709
c2.2793 2.28125 5.44434 3.59375 8.66992 3.59375zM164.485 387.302c3.22559 0 6.37793 -1.3125 8.67188 -3.59375c2.28027 -2.28125 3.59277 -5.44531 3.59277 -8.6709s-1.31348 -6.38965 -3.59277 -8.6709c-2.28125 -2.28125 -5.44629 -3.59375 -8.67188 -3.59375
c-3.23633 0 -6.40039 1.3125 -8.6709 3.59375c-2.29297 2.28125 -3.59277 5.44531 -3.59277 8.6709s1.2998 6.38965 3.59277 8.6709c2.28125 2.28125 5.43359 3.59375 8.6709 3.59375zM210.245 387.302c3.22559 0 6.38867 -1.3125 8.6709 -3.59375
s3.59277 -5.44531 3.59277 -8.6709s-1.31152 -6.38965 -3.59277 -8.6709s-5.44531 -3.59375 -8.6709 -3.59375c-3.23828 0 -6.39062 1.3125 -8.68359 3.59375c-2.28027 2.28125 -3.58105 5.44531 -3.58105 8.6709s1.30078 6.38965 3.58105 8.6709
c2.29297 2.28125 5.44531 3.59375 8.68359 3.59375zM256.004 387.302c3.22559 0 6.38965 -1.3125 8.66992 -3.59375c2.28223 -2.28125 3.59473 -5.44531 3.59473 -8.6709s-1.31348 -6.38965 -3.59473 -8.6709c-2.29297 -2.28125 -5.44434 -3.59375 -8.66992 -3.59375
c-3.23828 0 -6.38965 1.3125 -8.6709 3.59375c-2.29395 2.28125 -3.59375 5.44531 -3.59375 8.6709s1.2998 6.38965 3.59375 8.6709c2.28125 2.28125 5.43164 3.59375 8.6709 3.59375zM301.763 387.302c3.22559 0 6.38867 -1.3125 8.6709 -3.59375
s3.59375 -5.44531 3.59375 -8.6709s-1.3125 -6.38965 -3.59375 -8.6709s-5.44531 -3.59375 -8.6709 -3.59375c-3.23633 0 -6.38965 1.3125 -8.66992 3.59375c-2.29297 2.28125 -3.59473 5.44531 -3.59473 8.6709s1.30176 6.38965 3.59473 8.6709
c2.28027 2.28125 5.43164 3.59375 8.66992 3.59375zM347.521 387.302c3.22559 0 6.38965 -1.3125 8.66992 -3.59375c2.28223 -2.28125 3.59473 -5.43262 3.59473 -8.6709c0 -3.22559 -1.31348 -6.38965 -3.59473 -8.6709
c-2.28027 -2.28125 -5.44434 -3.59375 -8.66992 -3.59375c-3.2373 0 -6.38965 1.3125 -8.6709 3.59375c-2.28223 2.28125 -3.59375 5.44531 -3.59375 8.6709s1.3125 6.38965 3.59375 8.6709s5.44531 3.59375 8.6709 3.59375zM393.28 387.302
c3.22559 0 6.39062 -1.3125 8.6709 -3.59375c2.28125 -2.28125 3.59375 -5.44531 3.59375 -8.6709s-1.31348 -6.38965 -3.59375 -8.6709c-2.28125 -2.28125 -5.44531 -3.59375 -8.6709 -3.59375s-6.38965 1.3125 -8.6709 3.59375s-3.59375 5.44531 -3.59375 8.6709
c0 3.23828 1.31348 6.38965 3.59375 8.6709c2.28125 2.28125 5.44531 3.59375 8.6709 3.59375zM439.041 387.302c3.22363 0 6.38965 -1.3125 8.66992 -3.59375c2.28223 -2.28125 3.59473 -5.44531 3.59473 -8.6709s-1.31348 -6.38965 -3.59473 -8.6709
c-2.28027 -2.28125 -5.44434 -3.59375 -8.66992 -3.59375c-3.22656 0 -6.38965 1.3125 -8.6709 3.59375c-2.2832 2.28125 -3.59375 5.44531 -3.59375 8.6709c0 3.23828 1.3125 6.38965 3.59375 8.6709s5.44434 3.59375 8.6709 3.59375zM511.071 18.4922
c1.22949 -2.97656 1.23926 -6.31738 0.0214844 -9.29785l-10.5967 -26.0557l9.15039 -29.4336c1.35059 -4.34375 0.185547 -9.0791 -3.02539 -12.2998c-3.21289 -3.22168 -7.94531 -4.39941 -12.291 -3.06348l-29.8232 9.17188l-25.623 -10.582
c-2.99902 -1.23828 -6.36523 -1.23926 -9.3623 0l-25.0186 10.3311l-25.0146 -10.3311c-2.99902 -1.23828 -6.36426 -1.23926 -9.36426 0l-25.0156 10.3311l-25.0176 -10.3311c-1.49902 -0.619141 -3.09082 -0.927734 -4.68164 -0.927734
c-1.58887 0 -3.18164 0.308594 -4.68066 0.927734l-25.0176 10.3311l-25.0137 -10.3311c-3 -1.23828 -6.36523 -1.23828 -9.36426 0l-25.0146 10.3311l-25.0156 -10.3311c-3 -1.2373 -6.36621 -1.2373 -9.36328 0l-25.0205 10.332l-25.0205 -10.332
c-2.99805 -1.2373 -6.36523 -1.2373 -9.36133 0l-25.0215 10.332l-25.0234 -10.332c-2.99707 -1.2373 -6.3623 -1.2373 -9.36133 0l-25.6328 10.584l-29.8311 -9.17383c-4.34375 -1.33691 -9.06543 -0.162109 -12.2783 3.0498
c-3.21094 3.21094 -4.38379 7.93457 -3.0498 12.2764l9.17285 29.8242l-10.583 25.623c-1.2373 2.99805 -1.2373 6.36523 0 9.3623l10.3311 25.0176l-10.3311 25.0156c-1.2373 2.99902 -1.2373 6.36523 0 9.36328l10.3311 25.0166l-10.3311 25.0176
c-1.2373 2.99805 -1.2373 6.36523 0 9.3623l10.3311 25.0176l-10.3311 25.0137c-1.2373 2.99805 -1.2373 6.36523 0 9.36328l10.3311 25.0156l-10.3311 25.0166c-1.2373 2.99805 -1.2373 6.36426 0 9.36133l10.3311 25.0215l-10.3311 25.0215
c-1.2373 2.99902 -1.2373 6.36426 0 9.36133l10.3311 25.0215l-10.3311 25.0234c-1.2373 2.99707 -1.2373 6.3623 0 9.36035l10.583 25.6348l-9.17383 29.8311c-1.33496 4.3418 -0.161133 9.06445 3.0498 12.2773c3.20996 3.21191 7.93262 4.38574 12.2773 3.0498
l29.8252 -9.17285l25.6221 10.583c3 1.23828 6.36523 1.23828 9.36426 0l25.0176 -10.3311l25.0176 10.3311c3.00195 1.23926 6.36719 1.23828 9.36426 0l25.0156 -10.3311l25.0166 10.3311c2.99805 1.23828 6.36523 1.23828 9.3623 0l25.0186 -10.3311l25.0137 10.3301
c3 1.23926 6.36523 1.2373 9.36426 0l25.0156 -10.332l25.0156 10.332c3 1.2373 6.36719 1.23926 9.36328 0l25.0195 -10.332l25.0225 10.332c2.99805 1.2373 6.36621 1.23926 9.36133 0l25.0205 -10.332l25.0225 10.332c2.99707 1.2373 6.3623 1.2373 9.36133 0
l25.6338 -10.583l29.8301 9.17383c4.3418 1.33594 9.06445 0.162109 12.2783 -3.0498c3.21191 -3.21289 4.38379 -7.93652 3.0498 -12.2783l-9.17285 -29.8232l10.583 -25.623c1.2373 -2.99902 1.2373 -6.36426 0 -9.36328l-10.3311 -25.0176l10.3311 -25.0156
c1.2373 -2.99805 1.2373 -6.36523 0 -9.3623l-10.3311 -25.0176l10.3311 -25.0186c1.2373 -2.99805 1.2373 -6.36523 0 -9.3623l-10.3311 -25.0176l10.3301 -25.0137c1.23828 -2.99805 1.23828 -6.36523 0.000976562 -9.3623l-10.3311 -25.0156l10.3311 -25.0176
c1.2373 -2.99902 1.2373 -6.36426 0 -9.36328l-10.3311 -25.0205l10.3311 -25.0205c1.2373 -2.99902 1.2373 -6.36426 0 -9.36133l-10.3311 -25.0215zM475.774 -19.9531c-0.84375 2.71191 -0.719727 5.63086 0.350586 8.25977l10.3574 25.4688l-10.3477 25.0586
c-1.2373 2.99902 -1.2373 6.36426 0 9.3623l10.332 25.0205l-10.332 25.0205c-1.2373 2.99805 -1.2373 6.36328 0 9.3623l10.332 25.0205l-10.332 25.0176c-1.2373 2.99805 -1.2373 6.36523 0 9.3623l10.332 25.0156l-10.3311 25.0127
c-1.23828 2.99707 -1.23828 6.36426 -0.000976562 9.3623l10.332 25.0186l-10.332 25.0186c-1.2373 2.99902 -1.2373 6.36523 0 9.36328l10.332 25.0166l-10.332 25.0166c-1.2373 2.99805 -1.2373 6.36328 0 9.3623l10.332 25.0176l-10.332 25.0156
c-1.08691 2.63281 -1.22363 5.56445 -0.385742 8.28711l3.66016 11.9014l-11.9072 -3.66211c-2.72266 -0.837891 -5.65234 -0.700195 -8.28613 0.386719l-25.0264 10.332l-25.0225 -10.3311c-2.99707 -1.2373 -6.36523 -1.23926 -9.36133 0l-25.0215 10.3311
l-25.0215 -10.3311c-2.99805 -1.2373 -6.36523 -1.23926 -9.3623 0l-25.0195 10.3311l-25.0156 -10.3311c-3.00098 -1.23926 -6.36621 -1.2373 -9.36426 0l-25.0156 10.3311l-25.0137 -10.3301c-3 -1.23828 -6.36621 -1.23828 -9.3623 0l-25.0186 10.332l-25.0166 -10.332
c-2.99902 -1.2373 -6.36523 -1.2373 -9.36328 0l-25.0166 10.332l-25.0156 -10.332c-2.99902 -1.2373 -6.36426 -1.23828 -9.36426 0l-25.0156 10.332l-25.0146 -10.332c-2.63477 -1.08789 -5.56543 -1.22559 -8.28711 -0.387695l-11.9023 3.66113l3.66211 -11.9072
c0.836914 -2.72461 0.701172 -5.65332 -0.386719 -8.28613l-10.333 -25.0273l10.333 -25.0234c1.2373 -2.99707 1.2373 -6.36328 0 -9.36133l-10.332 -25.0205l10.332 -25.0225c1.2373 -2.99805 1.2373 -6.36426 0 -9.36133l-10.332 -25.0205l10.332 -25.0176
c1.2373 -2.99707 1.2373 -6.36426 0 -9.3623l-10.332 -25.0156l10.332 -25.0127c1.2373 -2.99805 1.23828 -6.36426 0 -9.36328l-10.332 -25.0186l10.332 -25.0166c1.2373 -2.99902 1.2373 -6.36523 0 -9.36328l-10.332 -25.0166l10.332 -25.0166
c1.2373 -2.99805 1.2373 -6.36523 0 -9.3623l-10.332 -25.0176l10.332 -25.0146c1.08691 -2.63379 1.22363 -5.56445 0.386719 -8.28711l-3.66113 -11.9023l11.9082 3.66211c1.17676 0.361328 2.3916 0.541992 3.60449 0.541992
c1.59375 0 3.18457 -0.311523 4.68066 -0.928711l25.0254 -10.3311l25.0234 10.3311c2.99902 1.2373 6.36719 1.2373 9.36133 0l25.0215 -10.3311l25.0205 10.3311c2.99805 1.2373 6.36523 1.2373 9.36133 0l25.0215 -10.3311l25.0156 10.3311
c3.00098 1.23926 6.36621 1.23926 9.36426 0l25.0146 -10.3301l25.0137 10.3301c3 1.2373 6.36523 1.2373 9.36328 0l25.0176 -10.3311l25.0176 10.3311c3 1.2373 6.36523 1.23926 9.36328 0l25.0166 -10.3301l25.0146 10.3301c3 1.2373 6.36719 1.2373 9.3623 0
l25.0186 -10.3311l25.0146 10.3301c2.63574 1.08789 5.56445 1.22266 8.28711 0.386719l11.8193 -3.63477z" />
    <glyph glyph-name="uniF108" unicode="&#xf108;" 
d="M164.104 -63.9688c-2.06348 0 -4.03418 0.822266 -5.49219 2.26465l-156.346 156.378c-3.02539 3.02539 -3.02539 7.94336 0 10.9688l340.153 340.139c2.91699 2.91699 8.06836 2.91699 10.9697 0l156.331 -156.361c3.02539 -3.02539 3.02539 -7.94434 0 -10.9697
l-340.139 -340.154c-1.45898 -1.44238 -3.42969 -2.26465 -5.47754 -2.26465zM18.7266 100.15l145.377 -145.393l329.17 329.185l-145.361 145.393zM328.053 336.183c-1.98633 0 -3.97266 0.759766 -5.49316 2.26465l-38.2754 38.2764
c-3.02539 3.02539 -3.02539 7.94336 0 10.9688s7.94336 3.02539 10.9688 0l38.2764 -38.2754c3.02539 -3.02539 3.02539 -7.94434 0 -10.9697c-1.50488 -1.50488 -3.49121 -2.26465 -5.47656 -2.26465zM296.634 255.674c-1.98535 0 -3.97168 0.760742 -5.49219 2.26562
l-62.8203 62.8203c-3.02539 3.02637 -3.02539 7.94434 0 10.9697s7.94336 3.02539 10.9688 0l62.8213 -62.8213c3.02539 -3.02539 3.02539 -7.94336 0 -10.9688c-1.50488 -1.52051 -3.49121 -2.26562 -5.47754 -2.26562zM216.095 224.209
c-1.98535 0 -3.97168 0.760742 -5.49219 2.26562l-38.2754 38.2764c-3.02539 3.02539 -3.02539 7.94336 0 10.9688s7.94336 3.02539 10.9688 0l38.2764 -38.2754c3.02539 -3.02637 3.02539 -7.94434 0 -10.9697c-1.50488 -1.50488 -3.49121 -2.26562 -5.47754 -2.26562z
M184.646 143.67c-1.98535 0 -3.97168 0.760742 -5.49219 2.26562l-62.8203 62.8213c-3.02539 3.02539 -3.02539 7.94336 0 10.9688s7.94336 3.02539 10.9688 0l62.8213 -62.8213c3.02539 -3.02539 3.02539 -7.94336 0 -10.9688
c-1.50488 -1.50488 -3.49121 -2.26562 -5.47754 -2.26562zM104.122 112.252c-1.98535 0 -3.97168 0.760742 -5.49219 2.26562l-38.2764 38.2754c-3.02539 3.02539 -3.02539 7.94434 0 10.9697s7.94434 3.02539 10.9697 0l38.2754 -38.2764
c3.02539 -3.02539 3.02539 -7.94336 0 -10.9688c-1.50488 -1.50488 -3.49023 -2.26562 -5.47656 -2.26562z" />
    <glyph glyph-name="uniF103" unicode="&#xf103;" 
d="M356.648 272.821c3.58594 2.73926 8.71289 2.05176 11.4512 -1.5332c17.5293 -22.9424 26.7939 -50.3604 26.7939 -79.2881c0 -72.0811 -58.6426 -130.724 -130.724 -130.724s-130.723 58.6426 -130.723 130.724s58.6416 130.724 130.723 130.724
c28.9287 0 56.3467 -9.26562 79.2891 -26.7939c3.58691 -2.74023 4.27246 -7.86719 1.5332 -11.4531c-2.74023 -3.58594 -7.86816 -4.27246 -11.4521 -1.53223c-20.0703 15.335 -44.0586 23.4385 -69.3701 23.4385c-63.0703 0 -114.383 -51.3125 -114.383 -114.383
s51.3125 -114.383 114.383 -114.383c63.0713 0 114.383 51.3125 114.383 114.383c0 25.3115 -8.10352 49.2988 -23.4375 69.3682c-2.73926 3.58496 -2.05273 8.71289 1.5332 11.4531zM264.17 366.298c96.1094 0 174.298 -78.1885 174.298 -174.298
s-78.1885 -174.298 -174.298 -174.298c-96.1074 0 -174.298 78.1885 -174.298 174.298s78.1904 174.298 174.298 174.298zM264.17 34.043c87.0977 0 157.958 70.8594 157.958 157.957s-70.8604 157.957 -157.958 157.957s-157.957 -70.8594 -157.957 -157.957
s70.8594 -157.957 157.957 -157.957zM73.5322 366.298c4.51172 0 8.16992 -3.65723 8.16992 -8.16992v-98.043c0 -19.7285 -14.0576 -36.2334 -32.6807 -40.0283v-194.185c0 -4.5127 -3.6582 -8.16992 -8.1709 -8.16992c-4.51172 0 -8.16992 3.65723 -8.16992 8.16992
v194.185c-18.624 3.79492 -32.6807 20.2998 -32.6807 40.0283v98.043c0 4.5127 3.6582 8.16992 8.16992 8.16992c4.5127 0 8.1709 -3.65723 8.1709 -8.16992v-68.085h16.3398v68.085c0 4.5127 3.6582 8.16992 8.16992 8.16992c4.5127 0 8.1709 -3.65723 8.1709 -8.16992
v-68.085h16.3398v68.085c0 4.5127 3.6582 8.16992 8.1709 8.16992zM40.8506 235.574c13.5166 0 24.5107 10.9961 24.5107 24.5107v13.6172h-49.0205v-13.6172c0 -13.5146 10.9941 -24.5107 24.5098 -24.5107zM503.83 366.298c4.5127 0 8.16992 -3.65723 8.16992 -8.16992
v-332.256c0 -4.5127 -3.65723 -8.16992 -8.16992 -8.16992c-4.51367 0 -8.1709 3.65723 -8.1709 8.16992v141.617h-24.5107c-4.5127 0 -8.16992 3.65723 -8.16992 8.16992v149.788c0 22.5254 18.3252 40.8506 40.8516 40.8506zM495.659 183.83v164.728
c-9.50977 -3.37305 -16.3398 -12.459 -16.3398 -23.1104v-141.617h16.3398z" />
    <glyph glyph-name="uniF101" unicode="&#xf101;" 
d="M503.83 -4.82031c4.5127 0 8.16992 -3.65723 8.16992 -8.16992c0 -4.51367 -3.65723 -8.1709 -8.16992 -8.1709h-4.73047l-4.71094 -16.4902c-3.46777 -12.1328 -16.0674 -21.6367 -28.6865 -21.6367h-392.17c-12.6191 0 -25.2188 9.50293 -28.6855 21.6367
l-4.71289 16.4902h-4.72949c-4.51367 0 -8.16992 3.65723 -8.16992 8.1709c0 4.5127 3.65625 8.16992 8.16992 8.16992h468.426zM478.677 -33.1611l3.42871 12.001h-424.975l3.42773 -12.001c1.46289 -5.12109 7.64648 -9.78613 12.9736 -9.78613h392.17
c5.32617 0 11.5098 4.66504 12.9746 9.78613zM223.318 309.842c-0.000976562 12.4424 3.38574 18.9316 6.37305 24.6572c2.52539 4.84082 4.52051 8.66309 4.52051 17.0977c0 8.4375 -1.99512 12.2607 -4.52051 17.1006c-2.9873 5.72754 -6.37305 12.2168 -6.37305 24.6602
c-0.000976562 12.4443 3.38672 18.9346 6.37305 24.6611c2.52539 4.83984 4.52051 8.66406 4.52051 17.0996c0 4.51367 3.65625 8.16992 8.16992 8.16992s8.16992 -3.65625 8.16992 -8.16992c0 -12.4424 -3.38672 -18.9326 -6.37305 -24.6582
c-2.52539 -4.84082 -4.52051 -8.66504 -4.52051 -17.1025c0 -8.43652 1.99512 -12.2607 4.52051 -17.1006c2.9873 -5.72559 6.37207 -12.2158 6.37305 -24.6602c0 -12.4424 -3.38672 -18.9316 -6.37305 -24.6572c-2.52539 -4.83887 -4.52051 -8.66211 -4.52051 -17.0977
c0 -4.51172 -3.65625 -8.16992 -8.16992 -8.16992c-4.51172 0 -8.16992 3.65625 -8.16992 8.16992zM288.68 309.842c-0.000976562 12.4424 3.38574 18.9316 6.37402 24.6572c2.52539 4.84082 4.51953 8.66309 4.51953 17.0977c0 8.4375 -1.99414 12.2607 -4.51953 17.1006
c-2.98828 5.72754 -6.37402 12.2168 -6.37402 24.6602c-0.000976562 12.4443 3.38672 18.9346 6.37402 24.6611c2.52539 4.83984 4.51953 8.66406 4.51953 17.0996c0 4.51367 3.65723 8.16992 8.16992 8.16992c4.51367 0 8.1709 -3.65625 8.1709 -8.16992
c0 -12.4424 -3.38672 -18.9326 -6.37402 -24.6582c-2.52539 -4.84082 -4.51953 -8.66504 -4.51953 -17.1025c0 -8.43652 1.99414 -12.2607 4.51953 -17.1006c2.98828 -5.72559 6.37305 -12.2158 6.37402 -24.6602c0 -12.4424 -3.38672 -18.9316 -6.37402 -24.6572
c-2.52539 -4.83887 -4.51953 -8.66211 -4.51953 -17.0977c0 -4.51172 -3.65723 -8.16992 -8.1709 -8.16992c-4.51172 0 -8.16992 3.65625 -8.16992 8.16992zM95.3193 62.0117c-25.4609 0 -49.3975 9.91406 -67.4014 27.918
c-18.0029 18.0039 -27.918 41.9404 -27.918 67.4014s9.91504 49.3984 27.916 67.4033c16.0635 16.0635 36.8506 25.6885 59.2305 27.5752v24.8525c0 4.5127 3.65723 8.16992 8.1709 8.16992h348.596c4.5127 0 8.16992 -3.65723 8.16992 -8.16992v-87.1494
c0 -42.625 -15.0186 -84.1045 -42.2871 -116.8c-2.89062 -3.4668 -8.04297 -3.93164 -11.5068 -1.04199c-3.46484 2.89062 -3.93164 8.04199 -1.04102 11.5068c24.8242 29.7627 38.4951 67.5264 38.4951 106.334v46.2979h-21.7871v-57.1914
c0 -13.5146 -10.9961 -24.5107 -24.5107 -24.5107s-24.5098 10.9961 -24.5098 24.5107v57.1914h-16.3408v-89.8721c0 -13.5146 -10.9961 -24.5107 -24.5107 -24.5107s-24.5107 10.9961 -24.5107 24.5107v89.8721h-138.894c-4.5127 0 -8.16992 3.65723 -8.16992 8.16992
c0 4.51367 3.65723 8.1709 8.16992 8.1709h147.063c4.51367 0 8.1709 -3.65723 8.1709 -8.1709v-98.042c0 -4.50586 3.66406 -8.16992 8.16992 -8.16992s8.16992 3.66406 8.16992 8.16992v98.042c0 4.51367 3.65723 8.1709 8.1709 8.1709h32.6807
c4.5127 0 8.16992 -3.65723 8.16992 -8.1709v-65.3613c0 -4.50586 3.66504 -8.16992 8.16992 -8.16992c4.50586 0 8.1709 3.66406 8.1709 8.16992v65.3613c0 4.51367 3.65625 8.1709 8.16992 8.1709h29.957v16.3398h-332.255v-16.3398h24.5107
c4.5127 0 8.16992 -3.65723 8.16992 -8.1709c0 -4.5127 -3.65723 -8.16992 -8.16992 -8.16992h-32.6807c-21.0977 0 -40.9307 -8.21484 -55.8467 -23.1309c-14.916 -14.918 -23.1309 -34.751 -23.1309 -55.8477c0 -21.0957 8.21484 -40.9287 23.1318 -55.8477
c14.918 -14.917 34.751 -23.1318 55.8467 -23.1318h47.7334c2.24316 0 4.38867 -0.922852 5.93164 -2.55273c31.707 -33.4785 74.5479 -51.916 120.633 -51.916c38.8086 0 76.5723 13.6719 106.335 38.4971c3.46191 2.89062 8.61523 2.4248 11.5068 -1.04102
c2.88965 -3.46387 2.4248 -8.61719 -1.04199 -11.5068c-32.6934 -27.2705 -74.1748 -42.2881 -116.801 -42.2881c-49.4346 0 -95.4697 19.3135 -130.034 54.4678h-44.2627zM95.3184 219.97c4.5127 0 8.16992 -3.6582 8.16992 -8.1709v-21.7871
c0 -29.2012 7.68457 -57.9238 22.2256 -83.0566c1.46191 -2.52734 1.46387 -5.64453 0.00488281 -8.17383c-1.45996 -2.5293 -4.15723 -4.08887 -7.07715 -4.08887h-23.3223c-16.7305 0 -32.4609 6.5166 -44.291 18.3467c-11.832 11.8311 -18.3477 27.5615 -18.3477 44.292
c0 16.7314 6.51562 32.4619 18.3457 44.292c11.8301 11.8311 27.5605 18.3467 44.292 18.3467zM105.093 111.033c-11.7725 24.5234 -17.9453 51.5615 -17.9453 78.9785v12.9033c-9.25684 -1.63867 -17.7803 -6.05957 -24.5654 -12.8457
c-8.74512 -8.74512 -13.5605 -20.3711 -13.5605 -32.7383c0 -12.3662 4.81543 -23.9932 13.5615 -32.7373c8.74414 -8.74414 20.3701 -13.5605 32.7363 -13.5605h9.77344z" />
    <glyph glyph-name="uniF105" unicode="&#xf105;" 
d="M437.02 373.02c48.3516 -48.3516 74.9805 -112.64 74.9805 -181.02s-26.6299 -132.667 -74.9805 -181.02c-48.3516 -48.3516 -112.64 -74.9805 -181.02 -74.9805s-132.667 26.6299 -181.02 74.9805c-48.3516 48.3516 -74.9805 112.64 -74.9805 181.02
s26.6299 132.667 74.9805 181.02c48.3516 48.3516 112.64 74.9805 181.02 74.9805s132.668 -26.6289 181.02 -74.9805zM425.291 22.709c45.2178 45.2197 70.1211 105.342 70.1211 169.291s-24.9033 124.071 -70.1211 169.291
c-45.2197 45.2178 -105.342 70.1211 -169.291 70.1211s-124.071 -24.9033 -169.291 -70.1211c-45.2178 -45.2197 -70.1211 -105.342 -70.1211 -169.291s24.9033 -124.071 70.1211 -169.291c45.2197 -45.2178 105.342 -70.1211 169.291 -70.1211
s124.071 24.9033 169.291 70.1211zM389.658 261.512c4.17383 1.8916 9.08691 0.0390625 10.9756 -4.13477c9.3252 -20.5977 14.0527 -42.5928 14.0527 -65.377c0 -60.4131 -34.5488 -115.693 -88.4658 -142.334v-16.9053c0 -14.3301 -11.6582 -25.9873 -25.9873 -25.9873
s-25.9873 11.6572 -25.9873 25.9873v1.59863c-6.04297 -0.691406 -12.1484 -1.0459 -18.2461 -1.0459c-9.10352 0 -18.1768 0.786133 -27.0928 2.31836v-2.87109c0 -14.3301 -11.6582 -25.9873 -25.9873 -25.9873s-25.9873 11.6572 -25.9873 25.9873v205.382
c-10.2754 3.46973 -17.6934 13.1992 -17.6934 24.6309v33.1895c-27.873 -25.9609 -45.3389 -62.958 -45.3389 -103.963c0 -37.8662 14.7207 -73.4902 41.4502 -100.309c3.2334 -3.24512 3.22461 -8.49512 -0.0195312 -11.7295
c-1.61816 -1.61328 -3.7373 -2.41992 -5.85449 -2.41992c-2.12695 0 -4.25391 0.8125 -5.87402 2.43848c-29.8506 29.9502 -46.2891 69.7334 -46.2891 112.02c0 51.1064 24.29 96.6387 61.9258 125.681v51.252c0 4.58203 3.71387 8.29395 8.29395 8.29395
c4.58105 0 8.29395 -3.71191 8.29395 -8.29395v-40.0391c6.02539 3.54297 12.3018 6.7041 18.7988 9.44043v30.5986c0 4.58203 3.71387 8.29395 8.29395 8.29395s8.29395 -3.71191 8.29395 -8.29395v-24.6914c6.12207 1.80469 12.3965 3.24609 18.7988 4.30566v20.3857
c0 4.58203 3.71387 8.29395 8.29395 8.29395s8.29395 -3.71191 8.29395 -8.29395v-18.5322c3.11035 0.182617 6.24316 0.286133 9.39941 0.286133c11.8613 0 23.6689 -1.33105 35.1426 -3.92285c5.97461 11.04 12.9658 20.7012 21.1582 28.2637
c2.4209 2.23438 5.93457 2.82422 8.95215 1.50293c3.01758 -1.32031 4.96777 -4.30273 4.96777 -7.59766v-300.474c44.0469 25.0879 71.8789 72.2412 71.8789 123.541c0 20.4082 -4.23145 40.1025 -12.5762 58.5361c-1.88867 4.17383 -0.0371094 9.08691 4.13477 10.9756z
M230.013 331.71c-6.42676 -1.19336 -12.7031 -2.81934 -18.7988 -4.84863v-38.1016h18.7988v42.9502zM194.626 320.148c-6.56152 -3.15527 -12.8408 -6.80469 -18.7988 -10.8906v-20.498h18.7988v31.3887zM212.319 32.7607v212.319
c0 4.58105 3.71387 8.29395 8.29395 8.29395c5.18359 0 9.39941 4.21582 9.39941 9.39941v9.39941h-27.0713l-0.0214844 -0.000976562l-0.0205078 0.000976562h-27.0723v-9.39941c0 -5.18359 4.2168 -9.39941 9.39941 -9.39941c4.58008 0 8.29395 -3.71289 8.29395 -8.29395
v-212.319c0 -5.18359 4.2168 -9.40039 9.39941 -9.40039c5.18359 0 9.39941 4.2168 9.39941 9.40039zM256 49.9004c6.10449 0 12.2148 0.395508 18.2471 1.16602v88.4053h-9.39941c-4.49609 0 -8.17285 3.58301 -8.29102 8.07617
c-0.148438 5.625 -2.51855 113.08 27.2471 183.818c-9.11328 1.80469 -18.4375 2.73242 -27.8037 2.73242c-3.15918 0 -6.29102 -0.115234 -9.39941 -0.319336v-71.0068c0 -11.4307 -7.41797 -21.1602 -17.6934 -24.6309v-185.646
c8.8877 -1.71289 17.9707 -2.59473 27.0928 -2.59473zM309.633 32.7607v312.875c-14.8135 -23.6191 -25.6055 -60.4199 -31.5801 -108.221c-4.38867 -35.1123 -4.98047 -66.9697 -4.98633 -81.3545h9.47363c4.58008 0 8.29395 -3.71191 8.29395 -8.29395v-115.006
c0 -5.18359 4.21582 -9.40039 9.39941 -9.40039c5.18262 0 9.39941 4.2168 9.39941 9.40039zM347.938 300.352c-3.49121 2.96582 -3.91797 8.2002 -0.952148 11.6895c2.96387 3.49023 8.19922 3.91602 11.6904 0.952148c6.57031 -5.58008 12.7344 -11.7432 18.3164 -18.3154
c2.96484 -3.49121 2.53906 -8.72559 -0.952148 -11.6914c-1.55957 -1.32324 -3.46777 -1.97168 -5.36523 -1.97168c-2.34961 0 -4.68457 0.994141 -6.3252 2.9248c-5.00195 5.89062 -10.5234 11.4131 -16.4121 16.4121zM157.133 13.4844
c4.00586 -2.22266 5.4502 -7.27148 3.22559 -11.2764c-1.51465 -2.72852 -4.3418 -4.26953 -7.25781 -4.26953c-1.36328 0 -2.74316 0.334961 -4.01758 1.04297c-35.0088 19.4316 -64.1152 48.0264 -84.1719 82.6943c-2.29297 3.96387 -0.938477 9.03906 3.02539 11.332
c3.96387 2.29199 9.03906 0.939453 11.333 -3.02539c18.5547 -32.0703 45.4795 -58.5225 77.8633 -76.498zM358.017 368.729c-3.96582 2.2959 -5.31934 7.36816 -3.02637 11.333c2.29492 3.96484 7.37012 5.31543 11.333 3.02539
c6.28906 -3.63965 12.4658 -7.63379 18.3623 -11.875c3.71875 -2.6748 4.56445 -7.85742 1.88965 -11.5762c-1.62109 -2.25293 -4.16113 -3.45215 -6.74023 -3.45215c-1.67676 0 -3.37012 0.507812 -4.83496 1.56152c-5.45312 3.92383 -11.168 7.61816 -16.9834 10.9834z
M471.818 237.954c0.950195 -4.48145 -1.91309 -8.88477 -6.39355 -9.83203c-0.580078 -0.123047 -1.1582 -0.182617 -1.72754 -0.182617c-3.83496 0 -7.27832 2.6748 -8.10547 6.57617c-8.14355 38.4258 -27.1914 73.5283 -55.085 101.514
c-3.2334 3.24316 -3.22461 8.49512 0.0195312 11.7285s8.49512 3.22461 11.7285 -0.0195312c30.1582 -30.2559 50.7559 -68.2197 59.5635 -109.784z" />
    <glyph glyph-name="uniF100" unicode="&#xf100;" 
d="M339.069 293.745c4.51172 0 8.16992 -3.6582 8.16992 -8.16992v-181.632c0 -27.2568 -20.126 -49.8994 -46.2979 -53.8535v-97.749h38.1279c4.51172 0 8.16992 -3.6582 8.16992 -8.1709c0 -4.51172 -3.6582 -8.16992 -8.16992 -8.16992h-92.5957
c-4.5127 0 -8.16992 3.6582 -8.16992 8.16992c0 4.5127 3.65723 8.1709 8.16992 8.1709h38.1279v97.75c-26.1719 3.95312 -46.2979 26.5957 -46.2979 53.8535v181.631c0 4.51172 3.65723 8.16992 8.16992 8.16992h92.5957zM330.899 103.943v173.462h-76.2559v-173.462
c0 -21.0234 17.1045 -38.127 38.1279 -38.127s38.1279 17.1035 38.1279 38.127zM279.154 226.304c-4.51172 0 -8.16992 3.6582 -8.16992 8.1709c0 4.51172 3.6582 8.16992 8.16992 8.16992h27.2344c4.51172 0 8.16992 -3.6582 8.16992 -8.16992
c0 -4.5127 -3.6582 -8.1709 -8.16992 -8.1709h-27.2344zM483.41 103.943c0 -27.2568 -20.126 -49.8994 -46.2988 -53.8535v-97.749h38.1279c4.5127 0 8.1709 -3.6582 8.1709 -8.1709c0 -4.51172 -3.6582 -8.16992 -8.1709 -8.16992h-92.5957
c-4.51172 0 -8.16992 3.6582 -8.16992 8.16992c0 4.5127 3.6582 8.1709 8.16992 8.1709h38.1279v97.75c-26.1719 3.95312 -46.2979 26.5957 -46.2979 53.8535v181.631c0 4.51172 3.6582 8.16992 8.16992 8.16992h92.5957c4.5127 0 8.1709 -3.6582 8.1709 -8.16992v-181.632z
M390.814 103.943c0 -21.0225 17.1035 -38.126 38.127 -38.126s38.1279 17.1035 38.1279 38.127v173.461h-76.2549v-173.462zM450.729 234.475c0 -4.5127 -3.6582 -8.1709 -8.16992 -8.1709h-27.2344c-4.51172 0 -8.16992 3.6582 -8.16992 8.1709
c0 4.51172 3.6582 8.16992 8.16992 8.16992h27.2344c4.51172 0 8.16992 -3.6582 8.16992 -8.16992zM176.014 253.056c2.80566 -7.36426 5.80371 -14.3291 8.84082 -21.3838c12.8887 -29.9141 26.2139 -60.8486 26.2139 -127.529v-132.301
c0 -19.7627 -16.0781 -35.8418 -35.8428 -35.8418h-110.793c-19.7637 0 -35.8428 16.0781 -35.8428 35.8418v132.301c0 66.6807 13.3262 97.6152 26.2139 127.529c12.4062 28.8008 24.1445 56.0537 24.8457 115.402c-3.91992 2.64453 -6.50293 7.12598 -6.50293 12.2002
v47.874c0 22.5264 18.3252 40.8516 40.8506 40.8516h11.665c22.5264 0 40.8516 -18.3252 40.8516 -40.8516v-47.874c0 -5.07422 -2.58301 -9.55664 -6.50391 -12.2002c0.529297 -44.7656 7.33789 -71.2676 15.9766 -93.9492
c0.00878906 -0.0224609 0.0195312 -0.0458984 0.0273438 -0.0693359zM119.126 360.909c4.5127 0 8.16992 -3.6582 8.16992 -8.1709c0 -4.51172 -3.65723 -8.16992 -8.16992 -8.16992h-23.1719c-0.699219 -40.9492 -6.66113 -67.7412 -14.2334 -89.5947
c12.1387 -4.58301 24.9229 -6.90918 38.1055 -6.90918c13.1846 0 25.9697 2.32715 38.1094 6.91016c-8.06348 23.2744 -14.2988 52.1553 -14.2988 97.7637c0 3.95215 2.80762 7.25 6.53613 8.00684v46.4033c0 13.5166 -10.9951 24.5107 -24.5107 24.5107h-11.665
c-13.5156 0 -24.5107 -10.9941 -24.5107 -24.5107v-46.2393h29.6396zM69.8096 225.208c-12.2285 -28.3877 -23.8008 -55.2949 -24.8008 -112.895h29.9658c3.86035 21.2529 22.5059 37.4189 44.8564 37.4189s40.9961 -16.166 44.8564 -37.4189h29.9639
c-1 57.5996 -12.5732 84.5068 -24.8018 112.895c-2.04883 4.75586 -4.1084 9.54004 -6.12402 14.4863c-13.9902 -5.28516 -28.7168 -7.9707 -43.8994 -7.9707c-15.1797 0 -29.9053 2.68457 -43.8945 7.96973c-2.01562 -4.94531 -4.07422 -9.73047 -6.12207 -14.4854z
M44.9307 95.9727v-103.398h149.798v103.398h-37.4795c-4.51172 0 -8.16992 3.6582 -8.16992 8.16992c0 16.1279 -13.1211 29.25 -29.249 29.25s-29.25 -13.1221 -29.25 -29.25c0 -4.51172 -3.6582 -8.16992 -8.16992 -8.16992h-37.4795zM175.228 -47.6592
c10.7529 0 19.501 8.74805 19.501 19.501v4.39062h-149.798v-4.39062c0 -10.7529 8.74805 -19.501 19.502 -19.501h110.795z" />
    <glyph glyph-name="uniF102" unicode="&#xf102;" 
d="M256.011 448c141.389 0 255.984 -114.628 255.984 -255.994c0 -141.389 -114.585 -256.006 -255.984 -256.006c-141.39 0 -256.006 114.617 -256.006 256.006c0 141.366 114.628 255.994 256.006 255.994zM256.011 -42.668c129.4 0 234.652 105.286 234.652 234.674
s-105.252 234.662 -234.652 234.662c-129.39 0 -234.672 -105.272 -234.672 -234.662s105.272 -234.674 234.672 -234.674zM263.359 394.66c91.7803 0 202.675 -90.417 202.676 -202.654c0.0107422 -112.261 -110.873 -202.676 -202.676 -202.676
c-5.89746 0 -10.666 4.76758 -10.666 10.666v383.998c0 5.89746 4.76855 10.666 10.666 10.666zM402.018 83.124c10.3896 12.3936 19.3525 25.9756 26.3496 40.4268h-26.3477v42.6641h40.3799c1.50684 8.45117 2.30371 17.0635 2.30371 25.7891
c0 5.68164 -0.342773 11.3135 -0.994141 16.8848h-41.6914v42.6641h30.3633c-21.2842 51.0078 -67.334 92.4717 -115.691 111.123v-25.793h-42.6641v-42.6641h42.6641v-42.6641h-42.6641v-42.6641h42.6641v-42.6641h-42.6641v-42.6738h42.6641v-42.6641h-42.6641v-42.6641
h42.6641v-16.8984c11.4424 4.41309 22.7539 10.1045 33.6416 16.8984h-33.6416v42.6641h42.6641v-36.7236c14.8594 10.3418 28.7148 22.7471 40.7646 36.7236h-40.7646v42.6641h42.6641v-40.4287zM316.689 123.551v42.6641h42.6641v-42.6641h-42.6641zM316.689 208.889
v42.6641h42.6641v-42.6641h-42.6641zM316.689 294.217v42.6641h42.6641v-42.6641h-42.6641zM359.354 251.553v42.6641h42.6641v-42.6641h-42.6641zM359.354 166.225v42.6641h42.6641v-42.6641h-42.6641z" />
  </font>
</defs></svg>
