{
  "IcoMoonType": "selection",
  "icons": [
    {
      "icon": {
        "paths": [
          "M492.8 203.52v-111.36c0 0 19.2-37.12 46.080 0v111.36l90.88-48.64c0 0 46.080 6.4 24.32 48.64l-112.64 60.16v200.96l170.24-97.28v-133.12c0 0 20.48-33.28 48.64-1.28v104.96l97.28-60.16c0 0 42.24-7.608 30.72 42.24l-103.68 60.16 93.44 57.6c0 0 14.080 35.84-28.16 35.84l-115.2-65.28-162.56 93.44 163.84 103.68 106.24-65.28c0 0 48.072-2.56 26.88 43.52l-80.64 47.36 101.832 60.16c0 0 21.048 39.68-25.032 43.52l-103.68-55.040-3.84 99.84c0 0-17.92 42.24-48.64 0l-1.28-135.68-166.4-94.72v198.4l110.080 64c0 0 24.32 39.68-23.040 43.52l-89.6-52.48v120.32c0 0-17.92 38.4-46.080 0v-122.88l-94.72 52.48c0 0-39.68-10.24-12.8-47.36l108.8-60.16v-195.84l-174.080 99.84v130.56c0 0-16.64 42.24-49.92 0v-107.52l-101.12 61.44c0 0-39.68-1.28-20.48-44.8l96-55.040-89.6-57.6c0 0-15.36-34.56 26.88-39.68l113.92 69.12 174.080-103.68-174.080-94.72-120.32 69.12c0 0-39.68-8.96-15.36-47.36l84.48-49.92-101.243-61.44c0 0-19.077-34.56 27.003-39.68l98.56 58.88-1.28-102.4c0 0 30.72-33.28 55.040 6.4l-1.28 121.6 171.52 99.84-1.28-199.68-112.64-64c0 0-15.36-46.080 26.88-42.24l87.040 47.36z"
        ],
        "attrs": [
          {
            "fill": "rgb(255, 255, 255)",
            "stroke": "rgb(99, 99, 99)",
            "strokeLinejoin": "miter",
            "strokeLinecap": "butt",
            "strokeMiterlimit": "10",
            "strokeWidth": 20.48
          }
        ],
        "isMulticolor": false,
        "isMulticolor2": false,
        "grid": 0,
        "tags": [
          ") Winter_Main_Icon"
        ],
        "colorPermutations": {
          "25525525519999991": [
            {
              "f": 1,
              "s": 0
            }
          ]
        }
      },
      "attrs": [
        {
          "fill": "rgb(255, 255, 255)",
          "stroke": "rgb(99, 99, 99)",
          "strokeLinejoin": "miter",
          "strokeLinecap": "butt",
          "strokeMiterlimit": "10",
          "strokeWidth": 20.48
        }
      ],
      "properties": {
        "order": 24,
        "id": 16,
        "name": "Winter_Main_Icon-2",
        "prevSize": 32,
        "code": 59661
      },
      "setIdx": 0,
      "setId": 2,
      "iconIdx": 0
    },
    {
      "icon": {
        "paths": [
          "M492.8 203.52v-111.36c0 0 19.2-37.12 46.080 0v111.36l90.88-48.64c0 0 46.080 6.4 24.32 48.64l-112.64 60.16v200.96l170.24-97.28v-133.12c0 0 20.48-33.28 48.64-1.28v104.96l97.28-60.16c0 0 42.24-7.608 30.72 42.24l-103.68 60.16 93.44 57.6c0 0 14.080 35.84-28.16 35.84l-115.2-65.28-162.56 93.44 163.84 103.68 106.24-65.28c0 0 48.072-2.56 26.88 43.52l-80.64 47.36 101.832 60.16c0 0 21.048 39.68-25.032 43.52l-103.68-55.040-3.84 99.84c0 0-17.92 42.24-48.64 0l-1.28-135.68-166.4-94.72v198.4l110.080 64c0 0 24.32 39.68-23.040 43.52l-89.6-52.48v120.32c0 0-17.92 38.4-46.080 0v-122.88l-94.72 52.48c0 0-39.68-10.24-12.8-47.36l108.8-60.16v-195.84l-174.080 99.84v130.56c0 0-16.64 42.24-49.92 0v-107.52l-101.12 61.44c0 0-39.68-1.28-20.48-44.8l96-55.040-89.6-57.6c0 0-15.36-34.56 26.88-39.68l113.92 69.12 174.080-103.68-174.080-94.72-120.32 69.12c0 0-39.68-8.96-15.36-47.36l84.48-49.92-101.243-61.44c0 0-19.077-34.56 27.003-39.68l98.56 58.88-1.28-102.4c0 0 30.72-33.28 55.040 6.4l-1.28 121.6 171.52 99.84-1.28-199.68-112.64-64c0 0-15.36-46.080 26.88-42.24l87.040 47.36z"
        ],
        "attrs": [
          {
            "fill": "rgb(99, 99, 99)"
          }
        ],
        "isMulticolor": false,
        "isMulticolor2": false,
        "grid": 0,
        "tags": [
          ") Winter_Main_Icon"
        ]
      },
      "attrs": [
        {
          "fill": "rgb(99, 99, 99)"
        }
      ],
      "properties": {
        "order": 21,
        "id": 15,
        "name": "Winter_Main_Icon",
        "prevSize": 32,
        "code": 59648
      },
      "setIdx": 0,
      "setId": 2,
      "iconIdx": 1
    },
    {
      "icon": {
        "paths": [
          "M492.8 203.52v-111.36c0 0 19.2-37.12 46.080 0v111.36l90.88-48.64c0 0 46.080 6.4 24.32 48.64l-112.64 60.16v200.96l170.24-97.28v-133.12c0 0 20.48-33.28 48.64-1.28v104.96l97.28-60.16c0 0 42.24-7.608 30.72 42.24l-103.68 60.16 93.44 57.6c0 0 14.080 35.84-28.16 35.84l-115.2-65.28-162.56 93.44 163.84 103.68 106.24-65.28c0 0 48.072-2.56 26.88 43.52l-80.64 47.36 101.832 60.16c0 0 21.048 39.68-25.032 43.52l-103.68-55.040-3.84 99.84c0 0-17.92 42.24-48.64 0l-1.28-135.68-166.4-94.72v198.4l110.080 64c0 0 24.32 39.68-23.040 43.52l-89.6-52.48v120.32c0 0-17.92 38.4-46.080 0v-122.88l-94.72 52.48c0 0-39.68-10.24-12.8-47.36l108.8-60.16v-195.84l-174.080 99.84v130.56c0 0-16.64 42.24-49.92 0v-107.52l-101.12 61.44c0 0-39.68-1.28-20.48-44.8l96-55.040-89.6-57.6c0 0-15.36-34.56 26.88-39.68l113.92 69.12 174.080-103.68-174.080-94.72-120.32 69.12c0 0-39.68-8.96-15.36-47.36l84.48-49.92-101.243-61.44c0 0-19.077-34.56 27.003-39.68l98.56 58.88-1.28-102.4c0 0 30.72-33.28 55.040 6.4l-1.28 121.6 171.52 99.84-1.28-199.68-112.64-64c0 0-15.36-46.080 26.88-42.24l87.040 47.36z"
        ],
        "attrs": [
          {
            "fill": "none",
            "stroke": "rgb(99, 99, 99)",
            "strokeLinejoin": "miter",
            "strokeLinecap": "butt",
            "strokeMiterlimit": "10",
            "strokeWidth": 20.48
          }
        ],
        "isMulticolor": false,
        "isMulticolor2": false,
        "grid": 0,
        "tags": [
          ") Winter_Main_Icon"
        ]
      },
      "attrs": [
        {
          "fill": "none",
          "stroke": "rgb(99, 99, 99)",
          "strokeLinejoin": "miter",
          "strokeLinecap": "butt",
          "strokeMiterlimit": "10",
          "strokeWidth": 20.48
        }
      ],
      "properties": {
        "order": 22,
        "id": 14,
        "name": "Winter_Main_Icon-1",
        "prevSize": 32,
        "code": 59660
      },
      "setIdx": 0,
      "setId": 2,
      "iconIdx": 2
    },
    {
      "icon": {
        "paths": [
          "M993.28 302.080c0-46.582-37.898-84.48-84.48-84.48s-84.48 37.898-84.48 84.48c0 35.149 21.591 65.326 52.193 78.039-60.928 154.414-150.426 159.053-160.579 159.053-0.589 0-0.952-0.015-1.188-0.031-72.955-3.594-125.445-44.728-156.006-122.266-18.642-47.283-23.153-94.531-24.223-112.077 41.569-11.571 72.202-49.669 72.202-94.879 0-54.344-44.216-98.56-98.56-98.56s-98.56 44.216-98.56 98.56c0 47.37 33.603 87.025 78.223 96.425-22.932 199.47-129.428 229.944-135.158 231.419-6.303 0.881-12.652 1.326-18.872 1.326-102.205 0-167.951-119.823-186.824-159.273 30.203-12.887 51.43-42.875 51.43-77.737 0-46.582-37.898-84.48-84.48-84.48s-84.48 37.898-84.48 84.48c0 43.817 33.536 79.928 76.288 84.065l85.842 421.852c-19.108 6.784-32.855 24.996-32.855 46.403 0 27.177 22.108 49.28 49.28 49.28h597.76c27.177 0 49.28-22.103 49.28-49.28 0-22.231-14.802-41.052-35.067-47.171l93.542-420.91c44.385-2.463 79.77-39.245 79.77-84.239zM844.8 302.080c0-35.292 28.708-64 64-64s64 28.708 64 64-28.708 64-64 64-64-28.708-64-64zM430.080 209.92c0-43.054 35.026-78.080 78.080-78.080s78.080 35.026 78.080 78.080c0 40.238-30.607 73.452-69.76 77.624h-16.645c-39.148-4.173-69.755-37.386-69.755-77.624zM49.92 302.080c0-35.292 28.708-64 64-64s64 28.708 64 64c0 26.476-16.159 49.249-39.137 58.972l-0.671-1.669-29.906 6.405c-32.62-2.903-58.286-30.346-58.286-63.708zM834.56 854.4c0 15.882-12.918 28.8-28.8 28.8h-597.76c-15.882 0-28.8-12.918-28.8-28.8s12.918-28.8 28.8-28.8h597.76c15.882 0 28.8 12.918 28.8 28.8zM799.468 805.12h-587.581l-85.381-419.604c0.133-0.020 0.261-0.041 0.399-0.061 18.028 39.276 88.53 174.111 206.894 174.111 7.332 0 14.807-0.532 22.216-1.597l0.681-0.118c5.222-1.111 126.484-29.394 151.572-249.38 2.017 0 3.994-0.179 5.98-0.302 3.415 47.35 27.94 242.975 199.301 251.412 0 0 0.824 0.067 2.386 0.067 18.217 0 108.201-7.798 172.401-154.445l-88.868 399.918z"
        ],
        "attrs": [
          {
            "fill": "rgb(99, 99, 99)"
          }
        ],
        "isMulticolor": false,
        "isMulticolor2": false,
        "grid": 0,
        "tags": [
          ") Premium_Main_Icon"
        ]
      },
      "attrs": [
        {
          "fill": "rgb(99, 99, 99)"
        }
      ],
      "properties": {
        "order": 8,
        "id": 12,
        "name": "Premium_Main_Icon",
        "prevSize": 32,
        "code": 59649
      },
      "setIdx": 0,
      "setId": 2,
      "iconIdx": 3
    },
    {
      "icon": {
        "paths": [
          "M51.18 328.064h272.435v-272.435h-272.435v272.435zM71.66 76.109h231.475v231.475h-231.475v-231.475z",
          "M378.86 328.064h272.43v-272.435h-272.43v272.435zM399.34 76.109h231.47v231.475h-231.47v-231.475z",
          "M711.66 55.629v272.435h272.43v-272.435h-272.43zM963.61 307.584h-231.47v-231.475h231.47v231.475z",
          "M51.18 660.859h272.435v-272.43h-272.435v272.43zM71.66 408.909h231.475v231.47h-231.475v-231.47z",
          "M378.86 660.859h272.43v-272.43h-272.43v272.43zM399.34 408.909h231.47v231.47h-231.47v-231.47z",
          "M711.66 660.859h272.43v-272.43h-272.43v272.43zM732.14 408.909h231.47v231.47h-231.47v-231.47z",
          "M51.18 988.539h272.435v-272.43h-272.435v272.43zM71.66 736.589h231.475v231.47h-231.475v-231.47z",
          "M378.86 988.539h272.43v-272.43h-272.43v272.43zM399.34 736.589h231.47v231.47h-231.47v-231.47z",
          "M711.66 988.539h272.43v-272.43h-272.43v272.43zM732.14 736.589h231.47v231.47h-231.47v-231.47z",
          "M185.871 231.424l-65.976-66.273-14.51 14.449 83.533 83.912 80.691-119.542-16.978-11.459z",
          "M513.551 231.424l-65.976-66.273-14.51 14.449 83.533 83.912 80.691-119.542-16.978-11.459z",
          "M930.089 143.969l-16.978-11.459-66.76 98.913-65.976-66.273-14.51 14.449 83.533 83.912z",
          "M185.871 559.104l-65.976-66.273-14.51 14.449 83.533 83.917 80.691-119.547-16.978-11.459z",
          "M513.551 559.104l-65.976-66.273-14.51 14.449 83.533 83.917 80.691-119.547-16.978-11.459z",
          "M846.351 559.104l-65.976-66.273-14.51 14.449 83.533 83.917 80.691-119.547-16.978-11.459z",
          "M185.871 886.784l-65.976-66.273-14.51 14.449 83.533 83.917 80.691-119.547-16.978-11.459z",
          "M513.551 886.784l-65.976-66.273-14.51 14.449 83.533 83.917 80.691-119.547-16.978-11.459z",
          "M846.351 886.784l-65.976-66.273-14.51 14.449 83.533 83.917 80.691-119.547-16.978-11.459z"
        ],
        "attrs": [
          {
            "fill": "rgb(99, 99, 99)"
          },
          {
            "fill": "rgb(99, 99, 99)"
          },
          {
            "fill": "rgb(99, 99, 99)"
          },
          {
            "fill": "rgb(99, 99, 99)"
          },
          {
            "fill": "rgb(99, 99, 99)"
          },
          {
            "fill": "rgb(99, 99, 99)"
          },
          {
            "fill": "rgb(99, 99, 99)"
          },
          {
            "fill": "rgb(99, 99, 99)"
          },
          {
            "fill": "rgb(99, 99, 99)"
          },
          {
            "fill": "rgb(99, 99, 99)"
          },
          {
            "fill": "rgb(99, 99, 99)"
          },
          {
            "fill": "rgb(99, 99, 99)"
          },
          {
            "fill": "rgb(99, 99, 99)"
          },
          {
            "fill": "rgb(99, 99, 99)"
          },
          {
            "fill": "rgb(99, 99, 99)"
          },
          {
            "fill": "rgb(99, 99, 99)"
          },
          {
            "fill": "rgb(99, 99, 99)"
          },
          {
            "fill": "rgb(99, 99, 99)"
          }
        ],
        "isMulticolor": false,
        "isMulticolor2": false,
        "grid": 0,
        "tags": [
          ") All_Main_Icon"
        ]
      },
      "attrs": [
        {
          "fill": "rgb(99, 99, 99)"
        },
        {
          "fill": "rgb(99, 99, 99)"
        },
        {
          "fill": "rgb(99, 99, 99)"
        },
        {
          "fill": "rgb(99, 99, 99)"
        },
        {
          "fill": "rgb(99, 99, 99)"
        },
        {
          "fill": "rgb(99, 99, 99)"
        },
        {
          "fill": "rgb(99, 99, 99)"
        },
        {
          "fill": "rgb(99, 99, 99)"
        },
        {
          "fill": "rgb(99, 99, 99)"
        },
        {
          "fill": "rgb(99, 99, 99)"
        },
        {
          "fill": "rgb(99, 99, 99)"
        },
        {
          "fill": "rgb(99, 99, 99)"
        },
        {
          "fill": "rgb(99, 99, 99)"
        },
        {
          "fill": "rgb(99, 99, 99)"
        },
        {
          "fill": "rgb(99, 99, 99)"
        },
        {
          "fill": "rgb(99, 99, 99)"
        },
        {
          "fill": "rgb(99, 99, 99)"
        },
        {
          "fill": "rgb(99, 99, 99)"
        }
      ],
      "properties": {
        "order": 9,
        "id": 11,
        "name": "All_Main_Icon",
        "prevSize": 32,
        "code": 59650
      },
      "setIdx": 0,
      "setId": 2,
      "iconIdx": 4
    },
    {
      "icon": {
        "paths": [
          "M515.784 250.158c-143.8 0-260.797 118.267-260.797 263.634s116.992 263.629 260.797 263.629c143.805 0 260.803-118.267 260.803-263.629-0-145.367-116.997-263.634-260.803-263.634zM515.784 756.946c-132.511 0-240.317-109.076-240.317-243.149s107.807-243.154 240.317-243.154c132.511 0 240.323 109.082 240.323 243.154s-107.812 243.149-240.323 243.149z",
          "M501.76 64h20.48v143.36h-20.48v-143.36z",
          "M501.76 832h20.48v143.36h-20.48v-143.36z",
          "M824.32 509.44h143.36v20.48h-143.36v-20.48z",
          "M56.32 509.44h143.36v20.48h-143.36v-20.48z",
          "M230.816 200.119l76.375 76.375-14.481 14.481-76.375-76.375 14.481-14.481z",
          "M801.503 200.348l14.928 14.013-71.687 76.37-14.928-14.013 71.687-76.37z",
          "M218.204 838.548l-15.735-13.109 78.921-94.727 15.735 13.109-78.921 94.727z",
          "M801.465 851.706l-84.476-92.165 15.102-13.842 84.476 92.165-15.102 13.842z"
        ],
        "attrs": [
          {
            "fill": "rgb(99, 99, 99)"
          },
          {
            "fill": "rgb(99, 99, 99)"
          },
          {
            "fill": "rgb(99, 99, 99)"
          },
          {
            "fill": "rgb(99, 99, 99)"
          },
          {
            "fill": "rgb(99, 99, 99)"
          },
          {
            "fill": "rgb(99, 99, 99)"
          },
          {
            "fill": "rgb(99, 99, 99)"
          },
          {
            "fill": "rgb(99, 99, 99)"
          },
          {
            "fill": "rgb(99, 99, 99)"
          }
        ],
        "isMulticolor": false,
        "isMulticolor2": false,
        "grid": 0,
        "tags": [
          ") New_Main_Icon"
        ]
      },
      "attrs": [
        {
          "fill": "rgb(99, 99, 99)"
        },
        {
          "fill": "rgb(99, 99, 99)"
        },
        {
          "fill": "rgb(99, 99, 99)"
        },
        {
          "fill": "rgb(99, 99, 99)"
        },
        {
          "fill": "rgb(99, 99, 99)"
        },
        {
          "fill": "rgb(99, 99, 99)"
        },
        {
          "fill": "rgb(99, 99, 99)"
        },
        {
          "fill": "rgb(99, 99, 99)"
        },
        {
          "fill": "rgb(99, 99, 99)"
        }
      ],
      "properties": {
        "order": 10,
        "id": 10,
        "name": "New_Main_Icon",
        "prevSize": 32,
        "code": 59651
      },
      "setIdx": 0,
      "setId": 2,
      "iconIdx": 5
    },
    {
      "icon": {
        "paths": [
          "M927.508 208.666c-57.923-89.421-166.415-104.315-171.3-104.94-9.175-0.911-18.376-1.372-27.346-1.372-122.286 0-192.594 85.284-216.596 120.852-64.758-106.931-151.096-123.392-198.047-123.392-18.724 0-30.592 2.693-30.74 2.734-82.488 16.123-142.326 53.663-177.853 111.575-62.459 101.791-27.397 228.762-25.784 234.419 61.747 194.237 411.269 451.277 426.122 462.126l6.067 4.429 6.052-4.454c363.351-267.735 422.502-450.714 424.847-458.404 30.039-99.446 24.858-181.396-15.421-243.574zM923.325 446.29c-0.548 1.802-58.772 182.047-411.305 443.366-47.293-35.461-357.243-272.978-412.57-447.017-0.348-1.229-34.171-123.597 23.629-217.805 32.415-52.828 87.695-87.209 164.644-102.257 0.102-0.020 10.301-2.289 26.496-2.289 44.529 0 128.261 16.604 188.718 127.8l9.216 16.947 8.868-17.132c0.65-1.249 66.432-125.071 207.841-125.071 8.3 0 16.819 0.425 25.032 1.239 1.029 0.133 103.613 14.188 156.426 95.724 36.849 56.893 41.221 133.105 13.005 226.493z",
          "M170.67 380.36l20.475 0.461c0.128-5.816 4.972-142.479 159.252-150.431l-1.055-20.454c-173.046 8.919-178.637 168.806-178.673 170.424z"
        ],
        "attrs": [
          {
            "fill": "rgb(99, 99, 99)"
          },
          {
            "fill": "rgb(99, 99, 99)"
          }
        ],
        "isMulticolor": false,
        "isMulticolor2": false,
        "grid": 0,
        "tags": [
          ") Faves_Main_Icon"
        ]
      },
      "attrs": [
        {
          "fill": "rgb(99, 99, 99)"
        },
        {
          "fill": "rgb(99, 99, 99)"
        }
      ],
      "properties": {
        "order": 11,
        "id": 9,
        "name": "Faves_Main_Icon",
        "prevSize": 32,
        "code": 59652
      },
      "setIdx": 0,
      "setId": 2,
      "iconIdx": 6
    },
    {
      "icon": {
        "paths": [
          "M146.637 81.92l292.403 414.131v470.292l167.68-163.308v-302.008l280.284-419.108h-740.367zM848.676 102.4l-46.054 68.864h-567.834l-48.625-68.864h662.513zM459.52 917.816v-414.776h126.72v291.359l-126.72 123.418zM594.437 482.56h-139.853l-205.338-290.816h539.679l-194.488 290.816z"
        ],
        "attrs": [
          {
            "fill": "rgb(99, 99, 99)"
          }
        ],
        "isMulticolor": false,
        "isMulticolor2": false,
        "grid": 0,
        "tags": [
          ") Filter_Main_Icon"
        ]
      },
      "attrs": [
        {
          "fill": "rgb(99, 99, 99)"
        }
      ],
      "properties": {
        "order": 12,
        "id": 8,
        "name": "Filter_Main_Icon",
        "prevSize": 32,
        "code": 59653
      },
      "setIdx": 0,
      "setId": 2,
      "iconIdx": 7
    },
    {
      "icon": {
        "paths": [
          "M773.519 485.888h-107.919v20.48h91.761l91.668 383.063-102.144 21.499-82.473-268.754-66.314 275.261-97.085-18.089 43.402-219.346-20.091-3.978-47.416 239.667 136.55 25.431 53.33-221.379 66.007 215.086 141.056-29.701z",
          "M648.576 650.506l-6.282-334.684 80.123 130.161 118.876-66.954-180.46-263.368-375.091 3.574-172.867 272.696 107.791 60.805 89.882-133.821-6.461 331.592h344.489zM339.753 139.203l7.322-0.067 42.762 77.747-50.084-16.881v-60.8zM624.927 193.234l-58.076 23.91 47.273-80.553 2.929-0.026 7.875 56.668zM560.66 227.692l12.662 62.157-67.937 32.031 55.276-94.188zM476.124 331.279l-105.8-192.369 219.919-2.094-114.12 194.463zM390.943 218.895l57.196 103.997-75.095-40.054 17.9-63.944zM811.766 372.163l-82.237 46.31-109.112-177.27 7.291 388.823h-141.629v-275.246l0.937-1.597 109.588-51.671-13.998-68.705 64.788-26.68-9.692-69.76 12.411-0.118 161.654 235.914zM214.226 425.595l-72.509-40.904 155.366-245.079 22.195-0.21v75.315l47.124 15.887-17.516 62.561 116.716 62.249v274.611h-140.631l7.409-380.349-118.154 175.918z"
        ],
        "attrs": [
          {
            "fill": "rgb(99, 99, 99)"
          },
          {
            "fill": "rgb(99, 99, 99)"
          }
        ],
        "isMulticolor": false,
        "isMulticolor2": false,
        "grid": 0,
        "tags": [
          ") Same_Fabrics"
        ]
      },
      "attrs": [
        {
          "fill": "rgb(99, 99, 99)"
        },
        {
          "fill": "rgb(99, 99, 99)"
        }
      ],
      "properties": {
        "order": 13,
        "id": 7,
        "name": "Same_Fabrics",
        "prevSize": 32,
        "code": 59654
      },
      "setIdx": 0,
      "setId": 2,
      "iconIdx": 8
    },
    {
      "icon": {
        "paths": [
          "M773.519 485.888h-107.919v20.48h91.761l91.668 383.063-102.144 21.499-82.473-268.754-66.314 275.261-97.085-18.089 43.402-219.346-20.091-3.978-47.416 239.667 136.55 25.431 53.33-221.379 66.007 215.086 141.056-29.701z",
          "M648.576 650.506l-6.282-334.684 80.123 130.161 118.876-66.954-180.46-263.368-375.091 3.574-172.867 272.696 107.791 60.805 89.882-133.821-6.461 331.592h344.489zM650.117 136.248l161.649 235.914-82.237 46.31-109.112-177.27 7.291 388.823h-141.629v-275.246l0.937-1.597 109.588-51.671-13.998-68.705 64.788-26.68-9.692-69.76 12.416-0.118zM505.385 321.879l55.276-94.188 12.662 62.157-67.937 32.031zM617.057 136.561l7.869 56.668-58.076 23.91 47.273-80.553 2.934-0.026zM590.244 136.817l-114.12 194.458-105.8-192.364 219.919-2.094zM448.138 322.893l-75.095-40.054 17.905-63.939 57.19 103.992zM339.753 139.203l7.322-0.067 42.762 77.747-50.084-16.881v-60.8zM214.226 425.595l-72.509-40.904 155.366-245.079 22.195-0.21v75.315l47.124 15.887-17.516 62.561 116.716 62.249v274.611h-140.631l7.409-380.349-118.154 175.918z",
          "M671.621 581.713l-12.050-16.56 75.079-54.634 12.050 16.56-75.079 54.634z",
          "M694.346 648.112l-13.11-15.741 69.978-58.284 13.11 15.741-69.978 58.284z",
          "M716.545 729.358l-13.17-15.69 66.562-55.872 13.17 15.69-66.562 55.872z",
          "M735.293 813.462l-13.029-15.8 68.277-56.303 13.029 15.8-68.277 56.303z",
          "M812.385 811.566l13.61 15.311-61.441 54.618-13.61-15.311 61.441-54.618z",
          "M543.772 744.773l61.441-54.618 13.61 15.311-61.441 54.618-13.61-15.311z",
          "M603.378 809.135l-61.441 54.618-13.61-15.311 61.441-54.618 13.61 15.311z"
        ],
        "attrs": [
          {
            "fill": "rgb(99, 99, 99)"
          },
          {
            "fill": "rgb(99, 99, 99)"
          },
          {
            "fill": "rgb(99, 99, 99)"
          },
          {
            "fill": "rgb(99, 99, 99)"
          },
          {
            "fill": "rgb(99, 99, 99)"
          },
          {
            "fill": "rgb(99, 99, 99)"
          },
          {
            "fill": "rgb(99, 99, 99)"
          },
          {
            "fill": "rgb(99, 99, 99)"
          },
          {
            "fill": "rgb(99, 99, 99)"
          }
        ],
        "isMulticolor": false,
        "isMulticolor2": false,
        "grid": 0,
        "tags": [
          ") Diffrent_Fabrics"
        ]
      },
      "attrs": [
        {
          "fill": "rgb(99, 99, 99)"
        },
        {
          "fill": "rgb(99, 99, 99)"
        },
        {
          "fill": "rgb(99, 99, 99)"
        },
        {
          "fill": "rgb(99, 99, 99)"
        },
        {
          "fill": "rgb(99, 99, 99)"
        },
        {
          "fill": "rgb(99, 99, 99)"
        },
        {
          "fill": "rgb(99, 99, 99)"
        },
        {
          "fill": "rgb(99, 99, 99)"
        },
        {
          "fill": "rgb(99, 99, 99)"
        }
      ],
      "properties": {
        "order": 14,
        "id": 6,
        "name": "Diffrent_Fabrics",
        "prevSize": 32,
        "code": 59655
      },
      "setIdx": 0,
      "setId": 2,
      "iconIdx": 9
    },
    {
      "icon": {
        "paths": [
          "M878.899 486.948l0.097 0.061-1.009-2.36c-3.855-9.646-7.941-19.359-12.483-29.22-4.844-11.331-104.259-240.85-229.381-315.663l-1.116-0.579c-2.028-0.896-50.493-21.996-115.057-21.996-80.548 0-188.145 33.193-254.464 186.429l-141.041 226.55-0.323 2.038c-18.427 114.964-0.645 205.076 52.849 267.827 74.051 86.866 192.896 93.614 227.553 93.614 5.151 0 8.008-0.154 8.008-0.154l1.316-0.072 8.105 0.22c1.070 0.031 108.114 2.908 196.352 2.908 0.010 0 0.010 0 0.020 0 52.101 0 87.706-0.993 105.81-2.964l2.176-0.481c4.705-1.592 115.681-40.223 163.379-151.091 31.206-72.525 27.474-158.234-10.793-255.068zM754.068 397.158c-30.423-10.025-59.965-15.114-88.428-15.114-55.798 0-101.74 19.446-138.619 46.188-0.845 0.486-1.69 0.942-2.529 1.434l-9.656 5.673 1.004 1.403c-58.025 46.633-91.259 109.972-102.866 135.107-10.076-5.985-19.354-12.232-28.022-18.647 9.334-30.095 54.661-157.891 162.447-202.107 74.675-30.628 164.347-15.468 266.578 44.892 6.651 12.713 12.375 24.177 17.126 33.956-18.688-11.039-44.984-23.91-77.036-32.783zM819.896 634.348c-3.287 85.652-57.661 166.897-161.577 241.495-11.576 0.148-24.422 0.23-38.543 0.236 95.775-77.266 144.865-160.374 145.976-247.306 1.372-106.982-69.929-188.416-104.259-221.363 4.956-0.287 9.912-0.486 14.874-0.486 12.109 0 23.788 0.881 34.98 2.396 15.59 13.875 113.121 105.62 108.549 225.029zM602.445 417.838c10.588-3.118 21.243-5.56 31.954-7.332 19.21 16.543 112.343 102.784 110.868 217.999-1.101 86.098-54.18 169.103-157.763 246.712l0.568 0.758c-16.328-0.108-32.788-0.282-48.701-0.497 92.846-64.548 144.184-138.563 152.745-220.37 11.776-112.486-60.508-204.979-89.672-237.271zM168.494 498.176l20.106-32.297c3.046 52.531 19.922 174.833 109.184 242.898 40.509 30.884 90.537 46.351 149.56 46.351 34.243 0 71.562-5.289 111.749-15.708-6.292 14.259-14.495 28.81-25.201 43.141-114.524 30.74-204.273 21.094-266.716-28.836-98.217-78.52-99.072-233.825-98.683-255.549zM754.954 295.501c-106.004-50.934-197.443-58.557-272.174-22.554-104.991 50.575-145.418 171.315-157.891 220.534-4.229-5.76-8.090-11.525-11.638-17.275-2.98-5.893-5.678-11.827-8.115-17.777 4.332-22.615 36.838-172.006 148.588-228.859 72.765-37.012 164.808-27.95 273.582 26.813 9.651 12.774 18.883 25.917 27.648 39.117zM341.289 513.633c5.76-27.259 40.673-169.462 150.477-222.28 75.735-36.429 171.566-23.526 284.867 38.308 6.815 11.233 13.23 22.262 19.2 32.886-96.471-50.314-182.6-60.641-256.317-30.341-109.619 45.041-157.768 164.838-171.756 207.309-9.825-8.428-18.601-17.096-26.47-25.882zM290.852 477.199c9.242 19.83 21.294 39.45 37.192 57.62 23.675 27.054 53.207 47.846 88.238 62.454l6.871 3.789 0.323-0.829c38.973 14.981 84.521 22.543 136.397 22.543 5.704 0 11.535-0.092 17.423-0.276 0.763 6.62 1.505 16.686 1.219 29.102-85.304 25.82-157.379 20.076-214.226-17.321-102.902-67.692-126.029-219.151-129.096-243.241l20.111-32.307c1.981 27.581 9.641 72.054 35.548 118.467zM352.947 651.341c37.13 24.448 79.841 36.69 127.698 36.69 30.106 0 62.254-4.844 96.328-14.551-1.505 12.908-4.255 27.208-8.945 42.25-109.645 31.283-196.362 23.588-257.751-23.173-105.011-79.985-101.857-249.308-101.811-251.008l-4.644-0.123 14.781-23.741c10.045 54.18 41.902 172.785 134.344 233.656zM431.227 581.156c10.281-22.543 41.411-83.128 96.133-127.524 13.512 21.632 45.819 79.222 55.322 148.142-58.696 2.447-109.322-4.49-151.455-20.618zM519.956 137.677c56.566 0 100.92 17.797 106.25 20.024 24.945 15.037 49.019 37.043 71.542 62.423-98.432-41.364-183.521-44.344-253.404-8.755-94.607 48.189-135.644 153.364-151.404 209.669-13.445-53.632-9.472-100.705-8.54-109.517 62.029-142.863 161.316-173.844 235.556-173.844zM192.553 786.755c-49.116-57.62-65.444-141.476-48.532-249.272l4.71-7.567c3.523 57.759 21.458 172.421 105.569 239.734 42.455 33.976 95.877 50.995 159.626 50.995 29.921 0 62.147-3.784 96.553-11.295-24.243 23.849-56.863 46.013-100.654 63.754-1.178 0.031-2.97 0.067-5.299 0.067-32.445 0.005-143.611-6.226-211.973-86.415zM598.682 700.692c28.334-115.794-33.669-226.176-54.369-258.714 12.14-6.615 24.428-12.191 36.803-16.942 20.275 21.35 102.405 115.512 90.639 227.948-8.622 82.417-65.464 157.051-168.791 221.932-16-0.282-30.612-0.573-42.865-0.84 75.023-45.67 121.569-103.864 138.583-173.384zM870.968 733.716c-41.687 97.157-139.351 135.619-150.241 139.643-6.702 0.681-15.78 1.234-27.182 1.659 94.213-73.841 143.596-154.476 146.816-240.046 3.753-99.83-55.956-179.389-91.93-217.989 0.814 0.225 1.608 0.466 2.417 0.701 31.34 10.685 63.821 26.993 97.219 48.881 46.981 103.173 54.697 193.044 22.902 267.151z"
        ],
        "attrs": [
          {
            "fill": "rgb(99, 99, 99)"
          }
        ],
        "isMulticolor": false,
        "isMulticolor2": false,
        "grid": 0,
        "tags": [
          ") Woolmark"
        ]
      },
      "attrs": [
        {
          "fill": "rgb(99, 99, 99)"
        }
      ],
      "properties": {
        "order": 15,
        "id": 3,
        "name": "Woolmark",
        "prevSize": 32,
        "code": 59656
      },
      "setIdx": 0,
      "setId": 2,
      "iconIdx": 10
    },
    {
      "icon": {
        "paths": [
          "M871.245 571.991l51.594-55.828-50.877-53.422 51.635-50.775-52.076-48.604 51.456-64.323-53.309-45.696 52.951-58.839-85.56-93.711-53.187 59.208-58.788-59.663-46.039 62.234-60.308-62.013-48.584 61.373-58.936-61.491-46.075 58.87-55.603-58.127-55.168 58.563-52.557-59.453-48.988 59.31-56.11-57.784-97.833 88.76 55.808 59.238-55.798 55.798 53.693 51.988-47.606 46.756 52.859 53.709-55.347 53.647 51.645 54.226-48.748 53.873 52.101 52.951-49.869 55.895 54.548 49.428-50.212 55.322 91.013 85.893 45.245-52.076 55.004 51.62 49.556-50.417 54.799 50.524 49.014-52.454 64.010 52.772 40.003-53.627 62.725 53.402 46.106-55.501 65.075 54.932 47.555-48.404 53.96 48.819 83.108-89.267-49.454-44.339 53.32-56.704-51.313-52.168 51.538-56.694-51.978-47.729zM894.597 728.909l-54.2 57.636 49.536 44.411-55.132 59.213-53.56-48.461-48.026 48.876-66.335-55.997-46.054 55.429-63.565-54.118-40.212 53.893-62.28-51.338-48.266 51.656-54.426-50.176-49.434 50.284-55.926-52.49-45.21 52.035-60.882-57.467 50.483-55.619-54.676-49.551 49.116-55.045-52.004-52.859 48.532-53.647-50.755-53.294 55.583-53.873-52.951-53.811 47.964-47.109-53.827-52.106 55.137-55.137-55.127-58.522 67.717-61.435 58.235 59.981 48.292-58.455 51.548 58.312 55.767-59.197 57.037 59.633 46.085-58.89 58.834 61.394 48.696-61.507 60.861 62.577 46.131-62.362 57.262 58.107 52.618-58.568 57.8 63.304-54.569 60.631 54.211 46.464-50.944 63.683 50.324 46.966-50.765 49.92 51.523 54.098-52.506 56.806 52.116 47.846-50.862 55.946 51.082 51.937z",
          "M306.836 375.794l-14.619-14.344 66.564-67.838 14.619 14.344-66.564 67.838z",
          "M429.643 375.885l-14.481-14.481 67.838-67.838 14.481 14.481-67.838 67.838z",
          "M546.193 375.785l-14.619-14.344 66.564-67.838 14.619 14.344-66.564 67.838z",
          "M663.964 375.79l-14.608-14.354 72.956-74.247 14.608 14.354-72.956 74.247z",
          "M306.821 555.034l-14.621-14.34 66.545-67.847 14.621 14.34-66.545 67.847z",
          "M429.641 555.086l-14.481-14.481 67.838-67.838 14.481 14.481-67.838 67.838z",
          "M546.183 555.043l-14.621-14.34 66.545-67.847 14.621 14.34-66.545 67.847z",
          "M663.943 554.994l-14.61-14.36 72.967-74.237 14.61 14.36-72.967 74.237z",
          "M306.815 739.353l-14.621-14.34 66.545-67.847 14.621 14.34-66.545 67.847z",
          "M429.64 739.408l-14.481-14.481 67.838-67.838 14.481 14.481-67.838 67.838z",
          "M546.178 739.362l-14.621-14.34 66.545-67.847 14.621 14.34-66.545 67.847z",
          "M663.946 739.313l-14.61-14.36 72.967-74.237 14.61 14.36-72.967 74.237z"
        ],
        "attrs": [
          {
            "fill": "rgb(99, 99, 99)"
          },
          {
            "fill": "rgb(99, 99, 99)"
          },
          {
            "fill": "rgb(99, 99, 99)"
          },
          {
            "fill": "rgb(99, 99, 99)"
          },
          {
            "fill": "rgb(99, 99, 99)"
          },
          {
            "fill": "rgb(99, 99, 99)"
          },
          {
            "fill": "rgb(99, 99, 99)"
          },
          {
            "fill": "rgb(99, 99, 99)"
          },
          {
            "fill": "rgb(99, 99, 99)"
          },
          {
            "fill": "rgb(99, 99, 99)"
          },
          {
            "fill": "rgb(99, 99, 99)"
          },
          {
            "fill": "rgb(99, 99, 99)"
          },
          {
            "fill": "rgb(99, 99, 99)"
          }
        ],
        "isMulticolor": false,
        "isMulticolor2": false,
        "grid": 0,
        "tags": [
          ") Basic"
        ]
      },
      "attrs": [
        {
          "fill": "rgb(99, 99, 99)"
        },
        {
          "fill": "rgb(99, 99, 99)"
        },
        {
          "fill": "rgb(99, 99, 99)"
        },
        {
          "fill": "rgb(99, 99, 99)"
        },
        {
          "fill": "rgb(99, 99, 99)"
        },
        {
          "fill": "rgb(99, 99, 99)"
        },
        {
          "fill": "rgb(99, 99, 99)"
        },
        {
          "fill": "rgb(99, 99, 99)"
        },
        {
          "fill": "rgb(99, 99, 99)"
        },
        {
          "fill": "rgb(99, 99, 99)"
        },
        {
          "fill": "rgb(99, 99, 99)"
        },
        {
          "fill": "rgb(99, 99, 99)"
        },
        {
          "fill": "rgb(99, 99, 99)"
        }
      ],
      "properties": {
        "order": 16,
        "id": 2,
        "name": "Basic",
        "prevSize": 32,
        "code": 59657
      },
      "setIdx": 0,
      "setId": 2,
      "iconIdx": 11
    },
    {
      "icon": {
        "paths": [
          "M514.611 166.395c-188.549 0-341.939 153.395-341.939 341.944 0 188.544 153.39 341.939 341.939 341.939s341.944-153.395 341.944-341.939c0-188.554-153.395-341.944-341.944-341.944zM514.611 829.793c-177.254 0-321.459-144.205-321.459-321.459s144.205-321.459 321.459-321.459c177.254 0 321.464 144.21 321.464 321.464s-144.21 321.454-321.464 321.454z",
          "M478.72 721.92h69.12v-304.64h-69.12v304.64zM499.2 437.76h28.16v263.68h-28.16v-263.68z",
          "M478.72 366.080h69.12v-76.8h-69.12v76.8zM499.2 309.76h28.16v35.84h-28.16v-35.84z"
        ],
        "attrs": [
          {
            "fill": "rgb(99, 99, 99)"
          },
          {
            "fill": "rgb(99, 99, 99)"
          },
          {
            "fill": "rgb(99, 99, 99)"
          }
        ],
        "isMulticolor": false,
        "isMulticolor2": false,
        "grid": 0,
        "tags": [
          ") Info_Main_Icon"
        ]
      },
      "attrs": [
        {
          "fill": "rgb(99, 99, 99)"
        },
        {
          "fill": "rgb(99, 99, 99)"
        },
        {
          "fill": "rgb(99, 99, 99)"
        }
      ],
      "properties": {
        "order": 17,
        "id": 1,
        "name": "Info_Main_Icon",
        "prevSize": 32,
        "code": 59658
      },
      "setIdx": 0,
      "setId": 2,
      "iconIdx": 12
    },
    {
      "icon": {
        "paths": [
          "M531.282 920.996l449.362-533.929-172.826-241.147h-579.948l-184.668 243.548 449.469 531.528 1.597 5.243h2.836l14.915 17.633 14.843-17.633h2.811l1.608-5.243zM330.941 378.107l-253.962 0.717 151.235-199.455 102.728 198.738zM803.84 175.524l143.944 200.852-251.443 0.707 107.5-201.559zM509.44 905.764l-154.609-507.244 315.372-0.886-155.679 508.129h-5.084zM691.64 397.573l253.983-0.712-399.027 474.127 145.044-473.416zM785.495 166.4l-106.685 200.033-130.022-200.033h236.708zM524.365 166.4l137.006 210.78-293.617 0.824 139.52-211.604h17.091zM349.23 368.891l-104.663-202.491h238.177l-133.514 202.491zM78.336 399.299l255.104-0.717 144.113 472.822-399.217-472.105z"
        ],
        "attrs": [
          {
            "fill": "rgb(99, 99, 99)"
          }
        ],
        "isMulticolor": false,
        "isMulticolor2": false,
        "grid": 0,
        "tags": [
          ") Limited Edition"
        ]
      },
      "attrs": [
        {
          "fill": "rgb(99, 99, 99)"
        }
      ],
      "properties": {
        "order": 18,
        "id": 0,
        "name": "Limited-Edition",
        "prevSize": 32,
        "code": 59659
      },
      "setIdx": 0,
      "setId": 2,
      "iconIdx": 13
    }
  ],
  "height": 1024,
  "metadata": {
    "name": "icomoon"
  },
  "preferences": {
    "showGlyphs": true,
    "showQuickUse": true,
    "showQuickUse2": true,
    "showSVGs": true,
    "fontPref": {
      "prefix": "icon-",
      "metadata": {
        "fontFamily": "icomoon"
      },
      "metrics": {
        "emSize": 1024,
        "baseline": 6.25,
        "whitespace": 50
      },
      "embed": false
    },
    "imagePref": {
      "prefix": "icon-",
      "png": true,
      "useClassSelector": true,
      "color": 0,
      "bgColor": 16777215,
      "classSelector": ".icon"
    },
    "historySize": 50,
    "showCodes": true,
    "gridSize": 16
  }
}