<?xml version="1.0" standalone="no"?>
<!DOCTYPE svg PUBLIC "-//W3C//DTD SVG 1.1//EN" "http://www.w3.org/Graphics/SVG/1.1/DTD/svg11.dtd" >
<svg xmlns="http://www.w3.org/2000/svg">
<metadata>Generated by IcoMoon</metadata>
<defs>
<font id="icomoon-v1" horiz-adv-x="1024">
<font-face units-per-em="1024" ascent="960" descent="-64" />
<missing-glyph horiz-adv-x="1024" />
<glyph unicode="&#x20;" horiz-adv-x="512" d="" />
<glyph unicode="&#xe111;" glyph-name="shop" d="M727.513 408.141h-139.142c-38.081 0-69.048-30.967-69.048-69.048v-106.71c0-38.081 30.967-69.048 69.048-69.048h139.142c38.081 0 69.048 30.967 69.048 69.048v106.71c0 38.081-30.967 69.048-69.048 69.048zM746.344 232.383c0-10.462-8.579-18.831-18.831-18.831h-139.142c-10.462 0-18.831 8.579-18.831 18.831v106.71c0 10.462 8.579 18.831 18.831 18.831h139.142c10.462 0 18.831-8.579 18.831-18.831v-106.71zM1024 602.102c0 4.394-1.046 8.579-3.348 12.345l-152.324 267.822c-4.394 7.742-12.763 12.763-21.761 12.763h-669.345c-8.997 0-17.367-4.812-21.761-12.763l-152.114-267.822c-2.092-3.766-3.348-7.951-3.348-12.345 0-60.051 36.198-111.523 87.879-134.329v-441.697c0-13.81 11.299-25.108 25.108-25.108h138.723c0.209 0 0.418 0 0.628 0h194.589c0.209 0 0.418 0 0.628 0h463.248c13.81 0 25.108 11.299 25.108 25.108v438.558c0 1.046 0 1.883-0.209 2.72 51.89 22.807 88.298 74.488 88.298 134.748zM191.869 844.606h640.052l119.055-209.445h-877.953l118.846 209.445zM728.768 585.154c-7.951-45.195-47.497-79.51-94.993-79.51s-87.042 34.315-94.993 79.51h189.986zM485.427 585.154c-7.951-45.195-47.497-79.51-94.993-79.51s-87.042 34.315-95.202 79.51h190.195zM51.89 585.154h190.195c-7.951-45.195-47.706-79.51-95.202-79.51-47.497-0.209-87.042 34.315-94.993 79.51zM421.819 51.184h-144.373v270.96c0 19.668 15.902 35.779 35.779 35.779h73.023c19.668 0 35.779-15.902 35.779-35.779v-270.96h-0.209zM885.695 51.184h-413.659v270.96c0 47.287-38.499 85.996-85.996 85.996h-73.023c-47.287 0-85.996-38.499-85.996-85.996v-271.17h-88.925v404.453c2.929-0.209 5.859-0.209 8.788-0.209 50.635 0 95.412 25.736 121.775 64.863 26.364-39.127 71.14-64.863 121.775-64.863s95.202 25.736 121.775 64.863c26.364-39.127 71.14-64.863 121.566-64.863 50.635 0 95.202 25.736 121.566 64.863 26.364-39.127 71.14-64.863 121.775-64.863 2.929 0 5.649 0.209 8.579 0.209v-404.244zM877.116 505.435c-47.497 0-87.042 34.315-94.993 79.51h190.195c-8.16-44.986-47.706-79.51-95.202-79.51z" />
<glyph unicode="&#xe112;" glyph-name="star-outline-of-favourites" d="M821.398-63.993c-10.083 0-19.745 3.131-27.951 9.035l-281.47 202.639-281.47-202.62c-16.346-11.861-39.847-11.811-56.312 0.271-16.817 12.419-23.654 34.026-16.986 53.772l108.594 325.852-245.904 177.055c-16.886 12.199-23.942 33.688-17.597 53.486 6.43 19.864 24.737 33.181 45.55 33.181l305.852 0.033 112.876 338.61c6.497 19.543 24.753 32.673 45.397 32.673 20.659 0 38.9-13.131 45.431-32.691l112.859-338.61 305.869-0.035c20.811 0 39.103-13.299 45.533-33.096 6.395-19.831-0.661-41.337-17.564-53.553l-245.921-177.070 108.613-325.902c6.633-19.779-0.238-41.37-17.040-53.72-8.291-6.094-18.087-9.31-28.359-9.31zM511.977 185.463c3.469 0 6.937-1.049 9.882-3.197l291.352-209.743c4.908-3.52 11.707-3.469 16.531 0.085 4.908 3.602 6.904 9.915 4.974 15.72l-112.555 337.728c-2.351 7.021 0.152 14.754 6.159 19.086l256.005 184.347c4.941 3.587 7.039 9.88 5.179 15.668-1.879 5.786-7.26 9.695-13.351 9.695l-318.068 0.033c-7.292 0-13.74 4.653-16.041 11.574l-116.736 350.15c-1.912 5.702-7.258 9.544-13.332 9.544-6.040 0-11.405-3.84-13.282-9.526l-116.733-350.2c-2.301-6.904-8.764-11.574-16.041-11.574l-318.051-0.017c-6.092 0-11.471-3.909-13.351-9.695-1.844-5.786 0.238-12.097 5.194-15.686l255.989-184.33c6.024-4.332 8.51-12.064 6.159-19.085l-112.555-337.715c-1.946-5.821 0.067-12.132 4.991-15.772 4.72-3.467 11.676-3.535 16.412-0.084l291.419 209.778c2.911 2.15 6.38 3.214 9.848 3.214z" />
<glyph unicode="&#xe113;" glyph-name="quality" d="M935.96 48.47l-135.567 327.283c-3.453 8.336-13.011 12.299-21.349 8.843s-12.299-13.014-8.843-21.349l122.555-295.873-111.788 32.391c-7.338 2.129-15.175-1.118-18.859-7.813l-56.144-101.949-131.501 317.475c151.776 29.269 266.778 163.084 266.778 323.275 0.002 181.546-147.696 329.247-329.242 329.247s-329.247-147.7-329.247-329.247c0-73.534 24.236-141.51 65.135-196.375l-159.849-385.909c-2.403-5.804-1.268-12.471 2.922-17.151 4.188-4.68 10.691-6.545 16.724-4.798l131.885 38.217 66.233-120.281c2.885-5.235 8.382-8.458 14.31-8.458 0.301 0 0.604 0.009 0.906 0.024 6.273 0.349 11.789 4.259 14.194 10.064l126.662 305.79c3.453 8.338-0.505 17.896-8.843 21.349s-17.896-0.505-21.349-8.843l-113.653-274.38-56.139 101.949c-3.686 6.695-11.528 9.942-18.861 7.813l-111.786-32.391 140.303 338.724c60.128-64.316 145.669-104.59 240.453-104.59 9.785 0 19.463 0.455 29.031 1.294l147.757-356.716c2.403-5.804 7.922-9.715 14.192-10.061 0.305-0.017 0.606-0.026 0.909-0.026 5.928 0 11.425 3.222 14.308 8.458l66.235 120.281 131.885-38.217c6.037-1.75 12.534 0.118 16.724 4.798s5.323 11.347 2.919 17.151zM215.434 630.753c0 163.526 133.039 296.566 296.566 296.566s296.563-133.039 296.563-296.566-133.037-296.563-296.563-296.563c-163.526 0-296.566 133.037-296.566 296.563zM700.806 692.102c-1.88 5.791-6.83 10.057-12.837 11.066l-109.954 18.452-51.525 98.868c-2.815 5.401-8.399 8.789-14.491 8.789-6.090 0-11.676-3.388-14.491-8.789l-51.527-98.868-109.951-18.452c-6.007-1.007-10.955-5.273-12.837-11.066s-0.388-12.151 3.88-16.497l78.107-79.556-16.428-110.274c-0.898-6.024 1.63-12.046 6.558-15.628 4.924-3.577 11.436-4.12 16.887-1.407l99.801 49.701 99.799-49.701c2.307-1.148 4.8-1.715 7.283-1.715 3.392 0 6.763 1.055 9.606 3.12 4.928 3.582 7.456 9.604 6.558 15.628l-16.425 110.274 78.107 79.558c4.266 4.347 5.761 10.704 3.878 16.497zM589.798 613.136c-3.591-3.658-5.257-8.787-4.501-13.855l13.007-87.31-79.018 39.35c-2.296 1.142-4.789 1.715-7.286 1.715-2.495 0-4.991-0.571-7.283-1.715l-79.018-39.35 13.007 87.31c0.756 5.068-0.911 10.199-4.501 13.855l-61.843 62.991 87.055 14.611c5.055 0.848 9.419 4.018 11.787 8.562l40.797 78.279 40.797-78.282c2.37-4.545 6.732-7.715 11.787-8.562l87.057-14.611-61.843-62.989zM759.529 614.271c-8.948 1.196-17.162-5.105-18.345-14.053-15.157-114.398-113.686-200.669-229.184-200.669-127.486 0-231.204 103.716-231.204 231.204s103.718 231.204 231.204 231.204c115.501 0 214.027-86.269 229.184-200.669 1.183-8.948 9.412-15.253 18.345-14.053 8.944 1.185 15.238 9.399 14.051 18.345-17.299 130.584-129.754 229.058-261.58 229.058-145.506 0-263.885-118.377-263.885-263.885s118.379-263.883 263.885-263.883c131.826 0 244.281 98.474 261.582 229.058 1.185 8.944-5.107 17.157-14.053 18.343z" />
<glyph unicode="&#xe114;" glyph-name="shield" d="M946.975 682.165l-0.031 0.797c-0.445 9.836-0.742 20.242-0.922 31.82-0.836 56.461-45.719 103.164-102.187 106.32-117.734 6.57-208.812 44.961-286.632 120.812l-0.664 0.633c-25.383 23.273-63.672 23.273-89.062 0l-0.664-0.633c-77.82-75.851-168.898-114.242-286.632-120.82-56.461-3.148-101.351-49.851-102.187-106.32-0.172-11.5-0.477-21.906-0.922-31.812l-0.047-1.852c-2.289-120.054-5.133-269.468 44.851-405.085 27.484-74.578 69.109-139.406 123.711-192.695 62.187-60.687 143.64-108.867 242.093-143.195 3.203-1.117 6.531-2.023 9.922-2.703 4.781-0.953 9.594-1.43 14.406-1.43s9.633 0.477 14.406 1.43c3.391 0.68 6.742 1.594 9.961 2.719 98.336 34.391 179.703 82.594 241.835 143.273 54.578 53.305 96.203 118.148 123.711 192.742 50.172 136.023 47.336 285.718 45.055 405.999zM845.546 296.955c-52.719-142.937-160.335-241.101-328.999-300.085-0.602-0.203-1.242-0.383-1.906-0.516-1.742-0.344-3.516-0.344-5.281 0.008-0.656 0.133-1.297 0.305-1.891 0.508-168.843 58.875-276.53 156.984-329.21 299.929-46.070 125.007-43.461 262.163-41.156 383.163l0.016 0.672c0.469 10.398 0.781 21.289 0.953 33.258 0.375 25.070 20.344 45.812 45.461 47.211 66.625 3.719 125.156 16.594 178.937 39.359 53.711 22.734 101.414 54.781 145.82 97.968 2.258 1.906 5.187 1.914 7.437 0 44.414-43.187 92.117-75.234 145.82-97.968 53.781-22.766 112.312-35.641 178.945-39.359 25.117-1.398 45.086-22.141 45.453-47.219 0.18-12.031 0.492-22.922 0.961-33.25 2.297-121.14 4.844-258.406-41.359-383.679zM511.992 703.18c-140.718 0-255.195-114.484-255.195-255.195 0-140.718 114.476-255.202 255.195-255.202 140.711 0 255.195 114.484 255.195 255.202 0 140.711-114.484 255.195-255.195 255.195zM511.992 252.877c-107.586 0-195.109 87.523-195.109 195.109s87.523 195.109 195.109 195.109c107.578 0 195.101-87.523 195.101-195.109s-87.523-195.109-195.101-195.109zM585.336 527.212l-118.531-118.531-32.172 32.172c-11.734 11.734-30.758 11.734-42.492 0-11.727-11.734-11.727-30.758 0-42.484l53.422-53.422c5.867-5.867 13.555-8.797 21.242-8.797s15.375 2.93 21.242 8.797l139.781 139.781c11.727 11.734 11.727 30.758 0 42.484-11.734 11.742-30.758 11.742-42.492 0z" />
<glyph unicode="&#xe115;" glyph-name="customer-1" d="M991.968 454.824c-34.238 28.218-88.354 30.638-123.872-7.48l-88.174-94.654c-11.4 36.638-45.618 63.316-85.954 63.316h-157.35c-11.94 0-15.938 4.56-36.678 20.538-79.076 68.936-197.848 68.716-276.684-0.66l-57.836-50.916c-25.998 13.76-56.356 14.1-82.496 1.040l-66.336-33.158c-14.82-7.42-20.818-25.438-13.42-40.258l179.99-359.978c7.42-14.82 25.438-20.818 40.258-13.42l66.336 33.178c32.698 16.338 50.896 49.698 49.716 83.654h354.498c65.736 0 128.552 31.398 167.99 83.994l144.012 192.028c27.938 37.22 23.518 91.798-14 122.776zM262.912 26.030l-39.498-19.758-153.17 306.32 39.518 19.758c14.82 7.4 32.818 1.42 40.238-13.42l126.332-252.664c7.4-14.818 1.4-32.816-13.42-40.236zM957.97 368.048l-144.010-192.028c-28.178-37.578-73.036-59.996-119.992-59.996h-375.438l-112.414 224.846 56.776 49.976c56.496 49.698 141.692 49.698 198.188 0 33.278-29.298 53.976-34.838 75.536-34.838h157.35c16.54 0 29.998-13.46 29.998-29.998s-13.46-29.998-29.998-29.998h-153.21c-16.56 0-29.998-13.44-29.998-29.998s13.44-29.998 29.998-29.998h173.31c24.898 0 48.898 10.44 65.856 28.658l132.072 141.772c12.080 12.96 30.598 11.88 41.958 1.94 11.878-10.398 13.16-28.178 4.018-40.338zM630.77 755.266c20.538 21.538 33.198 50.656 33.198 82.716 0 66.036-53.356 121.992-119.992 121.992-66.136 0-121.992-55.856-121.992-121.992 0-31.078 12.18-60.416 34.298-82.956-54.856-30.758-94.294-89.794-94.294-159.030v-29.998c0-16.558 13.44-29.998 29.998-29.998h301.982c16.558 0 29.998 13.44 29.998 29.998v29.998c-0.002 67.876-37.336 127.832-93.196 159.27zM543.976 899.976c32.518 0 59.996-28.398 59.996-61.996 0-33.078-26.918-59.996-59.996-59.996-33.598 0-61.996 27.478-61.996 59.996 0 33.018 28.978 61.996 61.996 61.996zM421.984 595.996c0 66.136 55.856 121.992 121.992 121.992 66.156 0 119.992-54.716 119.992-121.992h-241.984z" />
</font></defs></svg>